[
  {
    "href": "https://en.wikipedia.org/wiki/%C3%85lesund",
    "linkText": "Ålesund"
  },
  {
    "href": "https://en.wikipedia.org/wiki/%C3%98yafestivalen",
    "linkText": "Øyafestivalen"
  },
  {
    "href": "https://en.wikipedia.org/wiki/15_kV_AC_railway_electrification",
    "linkText": "15 kV  16.7 Hz AC"
  },
  {
    "href": "https://en.wikipedia.org/wiki/1904_Summer_Olympics",
    "linkText": "1904 Games"
  },
  {
    "href": "https://en.wikipedia.org/wiki/1938_FIFA_World_Cup",
    "linkText": "1938"
  },
  {
    "href": "https://en.wikipedia.org/wiki/1972_Norwegian_European_Communities_membership_referendum",
    "linkText": "1972"
  },
  {
    "href": "https://en.wikipedia.org/wiki/1980_Summer_Olympics",
    "linkText": "1980 Summer Olympics"
  },
  {
    "href": "https://en.wikipedia.org/wiki/1980_Summer_Olympics_boycott",
    "linkText": "American-led boycott"
  },
  {
    "href": "https://en.wikipedia.org/wiki/1987_European_Competition_for_Women%27s_Football",
    "linkText": "1987"
  },
  {
    "href": "https://en.wikipedia.org/wiki/1994_FIFA_World_Cup",
    "linkText": "1994"
  },
  {
    "href": "https://en.wikipedia.org/wiki/1994_Norwegian_European_Union_membership_referendum",
    "linkText": "1994"
  },
  {
    "href": "https://en.wikipedia.org/wiki/1995_FIFA_Women%27s_World_Cup",
    "linkText": "1995"
  },
  {
    "href": "https://en.wikipedia.org/wiki/1998_European_Women%27s_Handball_Championship",
    "linkText": "1998"
  },
  {
    "href": "https://en.wikipedia.org/wiki/1998_FIFA_World_Cup",
    "linkText": "1998"
  },
  {
    "href": "https://en.wikipedia.org/wiki/1999_World_Women%27s_Handball_Championship",
    "linkText": "1999"
  },
  {
    "href": "https://en.wikipedia.org/wiki/2004_European_Women%27s_Handball_Championship",
    "linkText": "2004"
  },
  {
    "href": "https://en.wikipedia.org/wiki/2005_Norwegian_parliamentary_election",
    "linkText": "2005 election"
  },
  {
    "href": "https://en.wikipedia.org/wiki/2006_European_Women%27s_Handball_Championship",
    "linkText": "2006"
  },
  {
    "href": "https://en.wikipedia.org/wiki/2008_European_Women%27s_Handball_Championship",
    "linkText": "2008"
  },
  {
    "href": "https://en.wikipedia.org/wiki/2009_Norwegian_parliamentary_election",
    "linkText": "2009 general election"
  },
  {
    "href": "https://en.wikipedia.org/wiki/2010_European_Women%27s_Handball_Championship",
    "linkText": "2010"
  },
  {
    "href": "https://en.wikipedia.org/wiki/2011_Norway_attacks",
    "linkText": "two terrorist attacks"
  },
  {
    "href": "https://en.wikipedia.org/wiki/2011_World_Women%27s_Handball_Championship",
    "linkText": "2011"
  },
  {
    "href": "https://en.wikipedia.org/wiki/2013_Norwegian_parliamentary_election",
    "linkText": "2013 Norwegian parliamentary election"
  },
  {
    "href": "https://en.wikipedia.org/wiki/2014_European_Women%27s_Handball_Championship",
    "linkText": "2014"
  },
  {
    "href": "https://en.wikipedia.org/wiki/2015_World_Women%27s_Handball_Championship",
    "linkText": "2015"
  },
  {
    "href": "https://en.wikipedia.org/wiki/2016_Winter_Youth_Olympics",
    "linkText": "2016 Winter Youth Olympics"
  },
  {
    "href": "https://en.wikipedia.org/wiki/32nd_meridian_east",
    "linkText": "32° E"
  },
  {
    "href": "https://en.wikipedia.org/wiki/4th_meridian_east",
    "linkText": "4°"
  },
  {
    "href": "https://en.wikipedia.org/wiki/57th_parallel_north",
    "linkText": "57°"
  },
  {
    "href": "https://en.wikipedia.org/wiki/81st_parallel_north",
    "linkText": "81° N"
  },
  {
    "href": "https://en.wikipedia.org/wiki/A-ha",
    "linkText": "A-ha"
  },
  {
    "href": "https://en.wikipedia.org/wiki/ABBA",
    "linkText": "ABBA"
  },
  {
    "href": "https://en.wikipedia.org/wiki/Absolute_primogeniture",
    "linkText": "absolute primogeniture"
  },
  {
    "href": "https://en.wikipedia.org/wiki/Academic_term",
    "linkText": "semesters"
  },
  {
    "href": "https://en.wikipedia.org/wiki/Academy_Awards",
    "linkText": "Academy Award"
  },
  {
    "href": "https://en.wikipedia.org/wiki/Adel%C3%A9n",
    "linkText": "Adelén"
  },
  {
    "href": "https://en.wikipedia.org/wiki/Adolph_Tidemand",
    "linkText": "Adolph Tidemand"
  },
  {
    "href": "https://en.wikipedia.org/wiki/Agnes_Buen_Garn%C3%A5s",
    "linkText": "Agnes Buen Garnås"
  },
  {
    "href": "https://en.wikipedia.org/wiki/Ahrensburg",
    "linkText": "Ahrensburg"
  },
  {
    "href": "https://en.wikipedia.org/wiki/Ahrensburg_culture",
    "linkText": "Ahrensburg culture"
  },
  {
    "href": "https://en.wikipedia.org/wiki/Airline_hub",
    "linkText": "hub"
  },
  {
    "href": "https://en.wikipedia.org/wiki/Aksel_Sandemose",
    "linkText": "Aksel Sandemose"
  },
  {
    "href": "https://en.wikipedia.org/wiki/Alexander_Kielland",
    "linkText": "Alexander Kielland"
  },
  {
    "href": "https://en.wikipedia.org/wiki/Alfred_the_Great",
    "linkText": "Alfred the Great"
  },
  {
    "href": "https://en.wikipedia.org/wiki/Algae",
    "linkText": "algae"
  },
  {
    "href": "https://en.wikipedia.org/wiki/All-time_Olympic_Games_medal_table",
    "linkText": "the overall medal tables"
  },
  {
    "href": "https://en.wikipedia.org/wiki/Allies_of_World_War_II",
    "linkText": "Allied"
  },
  {
    "href": "https://en.wikipedia.org/wiki/American_Revolution",
    "linkText": "American"
  },
  {
    "href": "https://en.wikipedia.org/wiki/Anders_Behring_Breivik",
    "linkText": "Anders Behring Breivik"
  },
  {
    "href": "https://en.wikipedia.org/wiki/Andrea_Een",
    "linkText": "Andrea Een"
  },
  {
    "href": "https://en.wikipedia.org/wiki/Anglo-Saxon",
    "linkText": "Anglo-Saxons"
  },
  {
    "href": "https://en.wikipedia.org/wiki/Animal_husbandry",
    "linkText": "animal husbandry"
  },
  {
    "href": "https://en.wikipedia.org/wiki/Annbj%C3%B8rg_Lien",
    "linkText": "Annbjørg Lien"
  },
  {
    "href": "https://en.wikipedia.org/wiki/Anni-Frid_Lyngstad",
    "linkText": "Anni-Frid Lyngstad"
  },
  {
    "href": "https://en.wikipedia.org/wiki/Antarctic",
    "linkText": "Antarctic"
  },
  {
    "href": "https://en.wikipedia.org/wiki/Antarctica",
    "linkText": "Antarctic"
  },
  {
    "href": "https://en.wikipedia.org/wiki/Antarctic_Treaty_System",
    "linkText": "Antarctic Treaty"
  },
  {
    "href": "https://en.wikipedia.org/wiki/Appellate_court",
    "linkText": "appellate courts"
  },
  {
    "href": "https://en.wikipedia.org/wiki/Aqua_(band)",
    "linkText": "Aqua"
  },
  {
    "href": "https://en.wikipedia.org/wiki/Arab_diaspora",
    "linkText": "Arab"
  },
  {
    "href": "https://en.wikipedia.org/wiki/Archaeology",
    "linkText": "archaeology"
  },
  {
    "href": "https://en.wikipedia.org/wiki/Archdiocese_of_Nidaros",
    "linkText": "Archdiocese of Nidaros"
  },
  {
    "href": "https://en.wikipedia.org/wiki/Archipelago",
    "linkText": "archipelago"
  },
  {
    "href": "https://en.wikipedia.org/wiki/Arctic",
    "linkText": "Arctic"
  },
  {
    "href": "https://en.wikipedia.org/wiki/Arctic_Circle",
    "linkText": "Arctic Circle"
  },
  {
    "href": "https://en.wikipedia.org/wiki/Arctic_fox",
    "linkText": "Arctic fox"
  },
  {
    "href": "https://en.wikipedia.org/wiki/Arild_Andersen",
    "linkText": "Arild Andersen"
  },
  {
    "href": "https://en.wikipedia.org/wiki/Arne_N%C3%A6ss",
    "linkText": "Arne Næss"
  },
  {
    "href": "https://en.wikipedia.org/wiki/Arne_Nordheim",
    "linkText": "Arne Nordheim"
  },
  {
    "href": "https://en.wikipedia.org/wiki/Arne_Skouen",
    "linkText": "Arne Skouen"
  },
  {
    "href": "https://en.wikipedia.org/wiki/Arnulf_%C3%98verland",
    "linkText": "Arnulf Øverland"
  },
  {
    "href": "https://en.wikipedia.org/wiki/Art_Nouveau",
    "linkText": "Art Nouveau"
  },
  {
    "href": "https://en.wikipedia.org/wiki/Assassination_of_Indira_Gandhi",
    "linkText": "assassination of Indira Gandhi"
  },
  {
    "href": "https://en.wikipedia.org/wiki/Astrid_S",
    "linkText": "Astrid S"
  },
  {
    "href": "https://en.wikipedia.org/wiki/Atlantic",
    "linkText": "Atlantic"
  },
  {
    "href": "https://en.wikipedia.org/wiki/Atle_Selberg",
    "linkText": "Atle Selberg"
  },
  {
    "href": "https://en.wikipedia.org/wiki/Aurora",
    "linkText": "Aurora borealis"
  },
  {
    "href": "https://en.wikipedia.org/wiki/Avinor",
    "linkText": "Avinor"
  },
  {
    "href": "https://en.wikipedia.org/wiki/Bachelor%27s_degree",
    "linkText": "Bachelor"
  },
  {
    "href": "https://en.wikipedia.org/wiki/Bah%C3%A1%27%C3%AD_Faith",
    "linkText": "Baha'i"
  },
  {
    "href": "https://en.wikipedia.org/wiki/Baltic_Sea",
    "linkText": "Baltic"
  },
  {
    "href": "https://en.wikipedia.org/wiki/Bandy",
    "linkText": "the World Championships"
  },
  {
    "href": "https://en.wikipedia.org/wiki/Baptism",
    "linkText": "baptism"
  },
  {
    "href": "https://en.wikipedia.org/wiki/Baptists",
    "linkText": "Baptists"
  },
  {
    "href": "https://en.wikipedia.org/wiki/Barents_Sea",
    "linkText": "Barents Sea"
  },
  {
    "href": "https://en.wikipedia.org/wiki/Baseline_(sea)",
    "linkText": "baseline"
  },
  {
    "href": "https://en.wikipedia.org/wiki/Basking_shark",
    "linkText": "basking shark"
  },
  {
    "href": "https://en.wikipedia.org/wiki/Battles_of_Narvik",
    "linkText": "Battles of Narvik"
  },
  {
    "href": "https://en.wikipedia.org/wiki/Battle_of_Copenhagen_(1807)",
    "linkText": "Battle of Copenhagen"
  },
  {
    "href": "https://en.wikipedia.org/wiki/Battle_of_Dr%C3%B8bak_Sound",
    "linkText": "Battle of Drøbak Sound"
  },
  {
    "href": "https://en.wikipedia.org/wiki/Battle_of_France",
    "linkText": "German invasion of France"
  },
  {
    "href": "https://en.wikipedia.org/wiki/Battle_of_Hafrsfjord",
    "linkText": "Battle of Hafrsfjord"
  },
  {
    "href": "https://en.wikipedia.org/wiki/Bergen",
    "linkText": "Bergen"
  },
  {
    "href": "https://en.wikipedia.org/wiki/Bergen_Commuter_Rail",
    "linkText": "Bergen"
  },
  {
    "href": "https://en.wikipedia.org/wiki/Bergljot_Hob%C3%A6k_Haff",
    "linkText": "Bergljot Hobæk Haff"
  },
  {
    "href": "https://en.wikipedia.org/wiki/Berit_Nesheim",
    "linkText": "Berit Nesheim"
  },
  {
    "href": "https://en.wikipedia.org/wiki/Beyonc%C3%A9",
    "linkText": "Beyoncé"
  },
  {
    "href": "https://en.wikipedia.org/wiki/Biathlon",
    "linkText": "biathlete"
  },
  {
    "href": "https://en.wikipedia.org/wiki/Bill_Irgens",
    "linkText": "Bill Irgens"
  },
  {
    "href": "https://en.wikipedia.org/wiki/Bj%C3%B8rnstjerne_Bj%C3%B8rnson",
    "linkText": "Bjørnstjerne Bjørnson"
  },
  {
    "href": "https://en.wikipedia.org/wiki/Bj%C3%B8rn_D%C3%A6hlie",
    "linkText": "Bjørn Dæhlie"
  },
  {
    "href": "https://en.wikipedia.org/wiki/Black_Death",
    "linkText": "Black Death"
  },
  {
    "href": "https://en.wikipedia.org/wiki/Black_metal",
    "linkText": "murder cases"
  },
  {
    "href": "https://en.wikipedia.org/wiki/Bohusl%C3%A4n",
    "linkText": "Bohuslän"
  },
  {
    "href": "https://en.wikipedia.org/wiki/Bokm%C3%A5l",
    "linkText": "Bokmål"
  },
  {
    "href": "https://en.wikipedia.org/wiki/Bokm%C3%A5l_language",
    "linkText": "Bokmål"
  },
  {
    "href": "https://en.wikipedia.org/wiki/Bologna_Process",
    "linkText": "Bologna Process"
  },
  {
    "href": "https://en.wikipedia.org/wiki/Bornholm",
    "linkText": "Bornholm"
  },
  {
    "href": "https://en.wikipedia.org/wiki/Bosniaks",
    "linkText": "Bosniak"
  },
  {
    "href": "https://en.wikipedia.org/wiki/Bouvet_Island",
    "linkText": "Bouvet Island"
  },
  {
    "href": "https://en.wikipedia.org/wiki/Bragi_Boddason",
    "linkText": "Bragi Boddason"
  },
  {
    "href": "https://en.wikipedia.org/wiki/British_Commandos",
    "linkText": "Commandos"
  },
  {
    "href": "https://en.wikipedia.org/wiki/British_Isles",
    "linkText": "British Isles"
  },
  {
    "href": "https://en.wikipedia.org/wiki/Bronze",
    "linkText": "bronze"
  },
  {
    "href": "https://en.wikipedia.org/wiki/Brown_bear",
    "linkText": "brown bear"
  },
  {
    "href": "https://en.wikipedia.org/wiki/Brunost",
    "linkText": "brunost"
  },
  {
    "href": "https://en.wikipedia.org/wiki/Brunstad_Christian_Church",
    "linkText": "Brunstad Christian Church"
  },
  {
    "href": "https://en.wikipedia.org/wiki/Bryggen",
    "linkText": "Bryggen"
  },
  {
    "href": "https://en.wikipedia.org/wiki/Buddhism",
    "linkText": "Buddhist"
  },
  {
    "href": "https://en.wikipedia.org/wiki/Buddhism_in_Norway",
    "linkText": "Buddhism"
  },
  {
    "href": "https://en.wikipedia.org/wiki/Buddhist_Federation_of_Norway",
    "linkText": "Buddhistforbundet"
  },
  {
    "href": "https://en.wikipedia.org/wiki/Bugge_Wesseltoft",
    "linkText": "Bugge Wesseltoft"
  },
  {
    "href": "https://en.wikipedia.org/wiki/Burgher_(title)",
    "linkText": "burgher"
  },
  {
    "href": "https://en.wikipedia.org/wiki/Burzum",
    "linkText": "Burzum"
  },
  {
    "href": "https://en.wikipedia.org/wiki/Buskerud",
    "linkText": "Buskerud"
  },
  {
    "href": "https://en.wikipedia.org/wiki/By:Larm",
    "linkText": "by:Larm"
  },
  {
    "href": "https://en.wikipedia.org/wiki/Cabinet_of_Norway",
    "linkText": "cabinet"
  },
  {
    "href": "https://en.wikipedia.org/wiki/Camilla_Collett",
    "linkText": "Camilla Collett"
  },
  {
    "href": "https://en.wikipedia.org/wiki/Cardiovascular_disease",
    "linkText": "cardiovascular disease"
  },
  {
    "href": "https://en.wikipedia.org/wiki/Category:Mass_media_in_Norway",
    "linkText": "media"
  },
  {
    "href": "https://en.wikipedia.org/wiki/Category:Norwegian_cuisine",
    "linkText": "Norway's culinary traditions"
  },
  {
    "href": "https://en.wikipedia.org/wiki/Cato_Maximilian_Guldberg",
    "linkText": "Cato Maximilian Guldberg"
  },
  {
    "href": "https://en.wikipedia.org/wiki/Central_Europe",
    "linkText": "Central"
  },
  {
    "href": "https://en.wikipedia.org/wiki/Central_Intelligence_Agency",
    "linkText": "CIA"
  },
  {
    "href": "https://en.wikipedia.org/wiki/Centre_Party_(Norway)",
    "linkText": "Centre Party"
  },
  {
    "href": "https://en.wikipedia.org/wiki/Charles_XIII_of_Sweden",
    "linkText": "Charles XIII of Sweden"
  },
  {
    "href": "https://en.wikipedia.org/wiki/Charles_XIV_John_of_Sweden",
    "linkText": "King Charles III John"
  },
  {
    "href": "https://en.wikipedia.org/wiki/Chess",
    "linkText": "Chess"
  },
  {
    "href": "https://en.wikipedia.org/wiki/Chief_Justice_of_the_Supreme_Court_of_Norway",
    "linkText": "Chief Justice"
  },
  {
    "href": "https://en.wikipedia.org/wiki/Christel_Alsos",
    "linkText": "Christel Alsos"
  },
  {
    "href": "https://en.wikipedia.org/wiki/Christianization_of_Scandinavia",
    "linkText": "Christianised"
  },
  {
    "href": "https://en.wikipedia.org/wiki/Christian_Democratic_Party_(Norway)",
    "linkText": "Christian Democrats"
  },
  {
    "href": "https://en.wikipedia.org/wiki/Christian_Heinrich_Grosch",
    "linkText": "Christian H. Grosch"
  },
  {
    "href": "https://en.wikipedia.org/wiki/Christian_II_of_Denmark",
    "linkText": "King Christian II"
  },
  {
    "href": "https://en.wikipedia.org/wiki/Christian_Krohg",
    "linkText": "Christian Krohg"
  },
  {
    "href": "https://en.wikipedia.org/wiki/Christian_Michelsen",
    "linkText": "Christian Michelsen"
  },
  {
    "href": "https://en.wikipedia.org/wiki/Christian_mythology",
    "linkText": "Christian ones"
  },
  {
    "href": "https://en.wikipedia.org/wiki/Christian_VIII_of_Denmark",
    "linkText": "Christian Frederick"
  },
  {
    "href": "https://en.wikipedia.org/wiki/Christmas_tree",
    "linkText": "Christmas tree"
  },
  {
    "href": "https://en.wikipedia.org/wiki/Church_arson",
    "linkText": "church burnings"
  },
  {
    "href": "https://en.wikipedia.org/wiki/Church_of_Norway",
    "linkText": "Church of Norway"
  },
  {
    "href": "https://en.wikipedia.org/wiki/Civil_law_(legal_system)",
    "linkText": "civil law system"
  },
  {
    "href": "https://en.wikipedia.org/wiki/Civil_union",
    "linkText": "civil union"
  },
  {
    "href": "https://en.wikipedia.org/wiki/Civil_war_era_in_Norway",
    "linkText": "civil war era"
  },
  {
    "href": "https://en.wikipedia.org/wiki/Cod",
    "linkText": "codfish"
  },
  {
    "href": "https://en.wikipedia.org/wiki/Cognate",
    "linkText": "cognate"
  },
  {
    "href": "https://en.wikipedia.org/wiki/Cold_War",
    "linkText": "Cold War"
  },
  {
    "href": "https://en.wikipedia.org/wiki/Colonise",
    "linkText": "colonised"
  },
  {
    "href": "https://en.wikipedia.org/wiki/Columbia_University",
    "linkText": "Columbia University"
  },
  {
    "href": "https://en.wikipedia.org/wiki/Commander-in-chief",
    "linkText": "commander-in-chief"
  },
  {
    "href": "https://en.wikipedia.org/wiki/Common_Security_and_Defence_Policy",
    "linkText": "Common Security and Defence Policy"
  },
  {
    "href": "https://en.wikipedia.org/wiki/Communicable_disease",
    "linkText": "communicable diseases"
  },
  {
    "href": "https://en.wikipedia.org/wiki/Commuter_rail",
    "linkText": "commuter train"
  },
  {
    "href": "https://en.wikipedia.org/wiki/Confirmation",
    "linkText": "confirmation"
  },
  {
    "href": "https://en.wikipedia.org/wiki/Confirmation_(Lutheran_Church)",
    "linkText": "confirmed"
  },
  {
    "href": "https://en.wikipedia.org/wiki/Conscription",
    "linkText": "conscription"
  },
  {
    "href": "https://en.wikipedia.org/wiki/Conservative_Party_(Norway)",
    "linkText": "Conservative Party"
  },
  {
    "href": "https://en.wikipedia.org/wiki/Constitutional_monarchy",
    "linkText": "constitutional monarchy"
  },
  {
    "href": "https://en.wikipedia.org/wiki/Constitution_of_France",
    "linkText": "French"
  },
  {
    "href": "https://en.wikipedia.org/wiki/Constitution_of_Norway",
    "linkText": "Constitution"
  },
  {
    "href": "https://en.wikipedia.org/wiki/Convention_of_Moss",
    "linkText": "Convention of Moss"
  },
  {
    "href": "https://en.wikipedia.org/wiki/Copenhagen",
    "linkText": "Copenhagen"
  },
  {
    "href": "https://en.wikipedia.org/wiki/Cora_Sandel",
    "linkText": "Cora Sandel"
  },
  {
    "href": "https://en.wikipedia.org/wiki/Corded_Ware_culture",
    "linkText": "Corded Ware culture"
  },
  {
    "href": "https://en.wikipedia.org/wiki/Council_of_Europe",
    "linkText": "Council of Europe"
  },
  {
    "href": "https://en.wikipedia.org/wiki/Counties_of_Norway",
    "linkText": "counties"
  },
  {
    "href": "https://en.wikipedia.org/wiki/County",
    "linkText": "counties"
  },
  {
    "href": "https://en.wikipedia.org/wiki/County_governor_(Norway)",
    "linkText": "fylkesmann"
  },
  {
    "href": "https://en.wikipedia.org/wiki/Courts_of_justice_of_Norway",
    "linkText": "district courts"
  },
  {
    "href": "https://en.wikipedia.org/wiki/Criminology",
    "linkText": "criminology"
  },
  {
    "href": "https://en.wikipedia.org/wiki/Cross-country_skiing",
    "linkText": "cross-country skiing"
  },
  {
    "href": "https://en.wikipedia.org/wiki/Cross-country_skiing_(sport)",
    "linkText": "cross-country skiers"
  },
  {
    "href": "https://en.wikipedia.org/wiki/Czechoslovakia",
    "linkText": "Czechoslovakia"
  },
  {
    "href": "https://en.wikipedia.org/wiki/Dagens_N%C3%A6ringsliv",
    "linkText": "Dagens Næringsliv"
  },
  {
    "href": "https://en.wikipedia.org/wiki/Dag_Solstad",
    "linkText": "Dag Solstad"
  },
  {
    "href": "https://en.wikipedia.org/wiki/Danish_language",
    "linkText": "Danish"
  },
  {
    "href": "https://en.wikipedia.org/wiki/Darkthrone",
    "linkText": "Darkthrone"
  },
  {
    "href": "https://en.wikipedia.org/wiki/Deep_ecology",
    "linkText": "deep ecology"
  },
  {
    "href": "https://en.wikipedia.org/wiki/Deer",
    "linkText": "deer"
  },
  {
    "href": "https://en.wikipedia.org/wiki/Demi_Lovato",
    "linkText": "Demi Lovato"
  },
  {
    "href": "https://en.wikipedia.org/wiki/Democracy_Index",
    "linkText": "Democracy Index"
  },
  {
    "href": "https://en.wikipedia.org/wiki/Denmark",
    "linkText": "Denmark"
  },
  {
    "href": "https://en.wikipedia.org/wiki/Denmark%E2%80%93Norway",
    "linkText": "Danish kingdom"
  },
  {
    "href": "https://en.wikipedia.org/wiki/Dependencies_of_Norway",
    "linkText": "dependent territories"
  },
  {
    "href": "https://en.wikipedia.org/wiki/Dependent_territory",
    "linkText": "dependencies"
  },
  {
    "href": "https://en.wikipedia.org/wiki/Dimmu_Borgir",
    "linkText": "Dimmu Borgir"
  },
  {
    "href": "https://en.wikipedia.org/wiki/DNB_ASA",
    "linkText": "DnB NOR"
  },
  {
    "href": "https://en.wikipedia.org/wiki/Double_track",
    "linkText": "double track"
  },
  {
    "href": "https://en.wikipedia.org/wiki/Drammen",
    "linkText": "Drammen"
  },
  {
    "href": "https://en.wikipedia.org/wiki/Dublin",
    "linkText": "Dublin"
  },
  {
    "href": "https://en.wikipedia.org/wiki/Dunkirk_evacuation",
    "linkText": "evacuation of Dunkirk"
  },
  {
    "href": "https://en.wikipedia.org/wiki/Earless_seal",
    "linkText": "seals"
  },
  {
    "href": "https://en.wikipedia.org/wiki/Earls_of_Lade",
    "linkText": "Earls of Lade"
  },
  {
    "href": "https://en.wikipedia.org/wiki/Early_Norwegian_black_metal_scene",
    "linkText": "Norwegian black metal"
  },
  {
    "href": "https://en.wikipedia.org/wiki/Eastern_Norway",
    "linkText": "eastern Norway"
  },
  {
    "href": "https://en.wikipedia.org/wiki/Eastern_Orthodox",
    "linkText": "Eastern Orthodox"
  },
  {
    "href": "https://en.wikipedia.org/wiki/Eastern_Orthodoxy_in_Norway",
    "linkText": "Eastern Orthodox Christianity"
  },
  {
    "href": "https://en.wikipedia.org/wiki/Education_in_Norway",
    "linkText": "upper secondary school"
  },
  {
    "href": "https://en.wikipedia.org/wiki/Edvard_Grieg",
    "linkText": "Edvard Grieg"
  },
  {
    "href": "https://en.wikipedia.org/wiki/Edvard_Moser",
    "linkText": "Edvard Moser"
  },
  {
    "href": "https://en.wikipedia.org/wiki/Edvard_Munch",
    "linkText": "Edvard Munch"
  },
  {
    "href": "https://en.wikipedia.org/wiki/Egalitarianism",
    "linkText": "egalitarian"
  },
  {
    "href": "https://en.wikipedia.org/wiki/Einar_Gerhardsen",
    "linkText": "Einar Gerhardsen"
  },
  {
    "href": "https://en.wikipedia.org/wiki/Ekofisk_oil_field",
    "linkText": "Ekofisk"
  },
  {
    "href": "https://en.wikipedia.org/wiki/Ekstremsportveko",
    "linkText": "Ekstremsportveko"
  },
  {
    "href": "https://en.wikipedia.org/wiki/Emperor_(band)",
    "linkText": "Emperor"
  },
  {
    "href": "https://en.wikipedia.org/wiki/Employers%27_organisation",
    "linkText": "employers' organisations"
  },
  {
    "href": "https://en.wikipedia.org/wiki/Energy_in_Norway",
    "linkText": "oil exports"
  },
  {
    "href": "https://en.wikipedia.org/wiki/Engelbrekt_rebellion",
    "linkText": "a rebellion"
  },
  {
    "href": "https://en.wikipedia.org/wiki/Enslaved_(band)",
    "linkText": "Enslaved"
  },
  {
    "href": "https://en.wikipedia.org/wiki/Environmental_Performance_Index",
    "linkText": "Environmental Performance Index"
  },
  {
    "href": "https://en.wikipedia.org/wiki/Epcot",
    "linkText": "Epcot"
  },
  {
    "href": "https://en.wikipedia.org/wiki/Eric_of_Pomerania",
    "linkText": "Eric of Pomerania"
  },
  {
    "href": "https://en.wikipedia.org/wiki/Erik_Fosnes_Hansen",
    "linkText": "Erik Fosnes Hansen"
  },
  {
    "href": "https://en.wikipedia.org/wiki/Erik_Gr%C3%B8nseth",
    "linkText": "Erik Grønseth"
  },
  {
    "href": "https://en.wikipedia.org/wiki/Erik_Skjoldbj%C3%A6rg",
    "linkText": "Erik Skjoldbjærg"
  },
  {
    "href": "https://en.wikipedia.org/wiki/Eritrea",
    "linkText": "Eritrea"
  },
  {
    "href": "https://en.wikipedia.org/wiki/Erna_Solberg",
    "linkText": "Erna Solberg"
  },
  {
    "href": "https://en.wikipedia.org/wiki/Espen_Lind",
    "linkText": "Espen Lind"
  },
  {
    "href": "https://en.wikipedia.org/wiki/Ethiopia",
    "linkText": "Ethiopia"
  },
  {
    "href": "https://en.wikipedia.org/wiki/Eurasian_beaver",
    "linkText": "European beaver"
  },
  {
    "href": "https://en.wikipedia.org/wiki/European_Charter_for_Regional_or_Minority_Languages",
    "linkText": "European Charter for Regional or Minority Languages"
  },
  {
    "href": "https://en.wikipedia.org/wiki/European_Court_of_Human_Rights",
    "linkText": "European Court of Human Rights"
  },
  {
    "href": "https://en.wikipedia.org/wiki/European_Defence_Agency",
    "linkText": "European Defence Agency"
  },
  {
    "href": "https://en.wikipedia.org/wiki/European_Economic_Area",
    "linkText": "European Economic Area"
  },
  {
    "href": "https://en.wikipedia.org/wiki/European_Free_Trade_Association",
    "linkText": "European Free Trade Association"
  },
  {
    "href": "https://en.wikipedia.org/wiki/European_route_E39",
    "linkText": "E39"
  },
  {
    "href": "https://en.wikipedia.org/wiki/European_route_E6",
    "linkText": "European route E6"
  },
  {
    "href": "https://en.wikipedia.org/wiki/European_Union",
    "linkText": "European Union"
  },
  {
    "href": "https://en.wikipedia.org/wiki/European_Women%27s_Handball_Championship",
    "linkText": "European Championship"
  },
  {
    "href": "https://en.wikipedia.org/wiki/Evangelical_Lutheran_Free_Church_of_Norway",
    "linkText": "Evangelical Lutheran Free Church of Norway"
  },
  {
    "href": "https://en.wikipedia.org/wiki/Extreme_sport",
    "linkText": "extreme sport"
  },
  {
    "href": "https://en.wikipedia.org/wiki/Eyvindr_sk%C3%A1ldaspillir",
    "linkText": "Eyvindr skáldaspillir"
  },
  {
    "href": "https://en.wikipedia.org/wiki/F%C3%A5rik%C3%A5l",
    "linkText": "fårikål"
  },
  {
    "href": "https://en.wikipedia.org/wiki/Famine",
    "linkText": "famines"
  },
  {
    "href": "https://en.wikipedia.org/wiki/Farmers",
    "linkText": "farmers"
  },
  {
    "href": "https://en.wikipedia.org/wiki/Faroe_Islands",
    "linkText": "Faroe Islands"
  },
  {
    "href": "https://en.wikipedia.org/wiki/Federation_of_International_Bandy",
    "linkText": "Federation of International Bandy"
  },
  {
    "href": "https://en.wikipedia.org/wiki/Feudalism",
    "linkText": "Feudalism"
  },
  {
    "href": "https://en.wikipedia.org/wiki/FIFA_Women%27s_World_Cup",
    "linkText": "FIFA Women's World Cup"
  },
  {
    "href": "https://en.wikipedia.org/wiki/FIFA_World_Cup",
    "linkText": "FIFA World Cup"
  },
  {
    "href": "https://en.wikipedia.org/wiki/Finland",
    "linkText": "Finland"
  },
  {
    "href": "https://en.wikipedia.org/wiki/Finnmark",
    "linkText": "Finnmark"
  },
  {
    "href": "https://en.wikipedia.org/wiki/Finnmarksvidda",
    "linkText": "Finnmarksvidda"
  },
  {
    "href": "https://en.wikipedia.org/wiki/Finnmark_Act",
    "linkText": "Finnmark Act"
  },
  {
    "href": "https://en.wikipedia.org/wiki/Finn_E._Kydland",
    "linkText": "Finn E. Kydland"
  },
  {
    "href": "https://en.wikipedia.org/wiki/First_World_War",
    "linkText": "First World War"
  },
  {
    "href": "https://en.wikipedia.org/wiki/Fjord",
    "linkText": "fjords"
  },
  {
    "href": "https://en.wikipedia.org/wiki/Flytoget",
    "linkText": "Airport Express Train"
  },
  {
    "href": "https://en.wikipedia.org/wiki/Folk_etymology",
    "linkText": "folk etymology"
  },
  {
    "href": "https://en.wikipedia.org/wiki/Folk_music",
    "linkText": "folk music"
  },
  {
    "href": "https://en.wikipedia.org/wiki/Football_at_the_2000_Summer_Olympics_%E2%80%93_Women%27s_tournament",
    "linkText": "2000"
  },
  {
    "href": "https://en.wikipedia.org/wiki/Football_at_the_Olympics",
    "linkText": "Olympic Football Tournament"
  },
  {
    "href": "https://en.wikipedia.org/wiki/Forestry",
    "linkText": "forests"
  },
  {
    "href": "https://en.wikipedia.org/wiki/Fosna-Hensbacka_culture",
    "linkText": "Fosna culture"
  },
  {
    "href": "https://en.wikipedia.org/wiki/France",
    "linkText": "France"
  },
  {
    "href": "https://en.wikipedia.org/wiki/Fredrik_Barth",
    "linkText": "Fredrik Barth"
  },
  {
    "href": "https://en.wikipedia.org/wiki/Fredrik_Carl_St%C3%B8rmer",
    "linkText": "Fredrik Carl Størmer"
  },
  {
    "href": "https://en.wikipedia.org/wiki/Free_market",
    "linkText": "free market"
  },
  {
    "href": "https://en.wikipedia.org/wiki/Free_Norwegian_Forces",
    "linkText": "Free Norwegian Forces"
  },
  {
    "href": "https://en.wikipedia.org/wiki/French_Revolution",
    "linkText": "French"
  },
  {
    "href": "https://en.wikipedia.org/wiki/Frits_Thaulow",
    "linkText": "Frits Thaulow"
  },
  {
    "href": "https://en.wikipedia.org/wiki/Fungus",
    "linkText": "fungi"
  },
  {
    "href": "https://en.wikipedia.org/wiki/Gaul",
    "linkText": "Gaul"
  },
  {
    "href": "https://en.wikipedia.org/wiki/Gender_Equality_and_Anti-Discrimination_Ombud",
    "linkText": "Gender Equality and Anti-Discrimination Ombud"
  },
  {
    "href": "https://en.wikipedia.org/wiki/Georg_Johannesen",
    "linkText": "Georg Johannesen"
  },
  {
    "href": "https://en.wikipedia.org/wiki/Germanic_paganism",
    "linkText": "Germanic paganism"
  },
  {
    "href": "https://en.wikipedia.org/wiki/Germanic_peoples",
    "linkText": "Germanic"
  },
  {
    "href": "https://en.wikipedia.org/wiki/German_occupation_of_Norway",
    "linkText": "German occupation"
  },
  {
    "href": "https://en.wikipedia.org/wiki/Glacier",
    "linkText": "glacier"
  },
  {
    "href": "https://en.wikipedia.org/wiki/Global_Integrity",
    "linkText": "Index of Public Integrity"
  },
  {
    "href": "https://en.wikipedia.org/wiki/Gneiss",
    "linkText": "gneiss"
  },
  {
    "href": "https://en.wikipedia.org/wiki/Golden_Age",
    "linkText": "Golden Age"
  },
  {
    "href": "https://en.wikipedia.org/wiki/Gorgoroth",
    "linkText": "Gorgoroth"
  },
  {
    "href": "https://en.wikipedia.org/wiki/Grandmaster_(chess)",
    "linkText": "Grandmasters"
  },
  {
    "href": "https://en.wikipedia.org/wiki/Granite",
    "linkText": "granite"
  },
  {
    "href": "https://en.wikipedia.org/wiki/Great_Britain",
    "linkText": "Britain"
  },
  {
    "href": "https://en.wikipedia.org/wiki/Great_Famine_of_1695%E2%80%931697",
    "linkText": "famine of 1695–1696"
  },
  {
    "href": "https://en.wikipedia.org/wiki/Greenland",
    "linkText": "Greenland"
  },
  {
    "href": "https://en.wikipedia.org/wiki/Grey_wolf",
    "linkText": "grey wolf"
  },
  {
    "href": "https://en.wikipedia.org/wiki/Gro_Harlem_Brundtland",
    "linkText": "Brundtland"
  },
  {
    "href": "https://en.wikipedia.org/wiki/Gulf_Stream",
    "linkText": "Gulf Stream"
  },
  {
    "href": "https://en.wikipedia.org/wiki/Gunvor_Hofmo",
    "linkText": "Gunvor Hofmo"
  },
  {
    "href": "https://en.wikipedia.org/wiki/Gurdwara",
    "linkText": "gurdwaras"
  },
  {
    "href": "https://en.wikipedia.org/wiki/Gutorm_Gjessing",
    "linkText": "Gutorm Gjessing"
  },
  {
    "href": "https://en.wikipedia.org/wiki/H%C3%A4rjedalen",
    "linkText": "Härjedalen"
  },
  {
    "href": "https://en.wikipedia.org/wiki/H%C3%A5kon_H%C3%A5konsson",
    "linkText": "Håkon Håkonsson"
  },
  {
    "href": "https://en.wikipedia.org/wiki/H%C3%B6rgr",
    "linkText": "hörgr"
  },
  {
    "href": "https://en.wikipedia.org/wiki/H%C3%B8yre",
    "linkText": "Høyre"
  },
  {
    "href": "https://en.wikipedia.org/wiki/Haakon,_Crown_Prince_of_Norway",
    "linkText": "Haakon, Crown Prince of Norway"
  },
  {
    "href": "https://en.wikipedia.org/wiki/Haakon_I_of_Norway",
    "linkText": "Haakon the Good"
  },
  {
    "href": "https://en.wikipedia.org/wiki/Haakon_VII_of_Norway",
    "linkText": "King Haakon"
  },
  {
    "href": "https://en.wikipedia.org/wiki/Haakon_VI_of_Norway",
    "linkText": "Haakon VI"
  },
  {
    "href": "https://en.wikipedia.org/wiki/Haakon_V_of_Norway",
    "linkText": "Haakon V"
  },
  {
    "href": "https://en.wikipedia.org/wiki/Habitat",
    "linkText": "habitats"
  },
  {
    "href": "https://en.wikipedia.org/wiki/Hagiography",
    "linkText": "hagiography"
  },
  {
    "href": "https://en.wikipedia.org/wiki/Halibut",
    "linkText": "halibut"
  },
  {
    "href": "https://en.wikipedia.org/wiki/Halvor_Hagen",
    "linkText": "Halvor Hagen"
  },
  {
    "href": "https://en.wikipedia.org/wiki/Hamburg",
    "linkText": "Hamburg"
  },
  {
    "href": "https://en.wikipedia.org/wiki/Handball",
    "linkText": "handball"
  },
  {
    "href": "https://en.wikipedia.org/wiki/Handball_at_the_2008_Summer_Olympics",
    "linkText": "2008"
  },
  {
    "href": "https://en.wikipedia.org/wiki/Handball_at_the_2012_Summer_Olympics",
    "linkText": "2012"
  },
  {
    "href": "https://en.wikipedia.org/wiki/Hanseatic_League",
    "linkText": "Hanseatic League"
  },
  {
    "href": "https://en.wikipedia.org/wiki/Hans_Gude",
    "linkText": "Hans Gude"
  },
  {
    "href": "https://en.wikipedia.org/wiki/Hans_Herbj%C3%B8rnsrud",
    "linkText": "Hans Herbjørnsrud"
  },
  {
    "href": "https://en.wikipedia.org/wiki/Harald_Fairhair",
    "linkText": "Harald Fairhair"
  },
  {
    "href": "https://en.wikipedia.org/wiki/Harald_Sohlberg",
    "linkText": "Harald Sohlberg"
  },
  {
    "href": "https://en.wikipedia.org/wiki/Harald_V_of_Norway",
    "linkText": "King Harald V"
  },
  {
    "href": "https://en.wikipedia.org/wiki/Hardangerj%C3%B8kulen",
    "linkText": "Hardangerjøkulen"
  },
  {
    "href": "https://en.wikipedia.org/wiki/Hardanger_fiddle",
    "linkText": "Hardanger fiddlers"
  },
  {
    "href": "https://en.wikipedia.org/wiki/Harriet_Backer",
    "linkText": "Harriet Backer"
  },
  {
    "href": "https://en.wikipedia.org/wiki/Harriet_Holter",
    "linkText": "Harriet Holter"
  },
  {
    "href": "https://en.wikipedia.org/wiki/Harstad",
    "linkText": "Harstad"
  },
  {
    "href": "https://en.wikipedia.org/wiki/Head_of_government",
    "linkText": "head of government"
  },
  {
    "href": "https://en.wikipedia.org/wiki/Head_of_state",
    "linkText": "head of state"
  },
  {
    "href": "https://en.wikipedia.org/wiki/Healthcare_in_Norway",
    "linkText": "Public health care in Norway"
  },
  {
    "href": "https://en.wikipedia.org/wiki/Heathen_hof",
    "linkText": "heathen hof"
  },
  {
    "href": "https://en.wikipedia.org/wiki/Heavy_metal_music",
    "linkText": "heavy metal"
  },
  {
    "href": "https://en.wikipedia.org/wiki/Heavy_water",
    "linkText": "heavy water"
  },
  {
    "href": "https://en.wikipedia.org/wiki/Hebrides",
    "linkText": "Hebrides"
  },
  {
    "href": "https://en.wikipedia.org/wiki/Henrik_Ibsen",
    "linkText": "Henrik Ibsen"
  },
  {
    "href": "https://en.wikipedia.org/wiki/Henrik_Wergeland",
    "linkText": "Henrik Wergeland"
  },
  {
    "href": "https://en.wikipedia.org/wiki/Herbj%C3%B8rg_Wassmo",
    "linkText": "Herbjørg Wassmo"
  },
  {
    "href": "https://en.wikipedia.org/wiki/Herring",
    "linkText": "herring"
  },
  {
    "href": "https://en.wikipedia.org/wiki/High-speed_rail",
    "linkText": "high-speed rail"
  },
  {
    "href": "https://en.wikipedia.org/wiki/Higher_education_in_Norway",
    "linkText": "Higher education in Norway"
  },
  {
    "href": "https://en.wikipedia.org/wiki/High_Middle_Ages",
    "linkText": "High Middle Ages"
  },
  {
    "href": "https://en.wikipedia.org/wiki/Hinduism",
    "linkText": "Hinduism"
  },
  {
    "href": "https://en.wikipedia.org/wiki/Hinduism_in_Norway",
    "linkText": "Hinduism"
  },
  {
    "href": "https://en.wikipedia.org/wiki/History_of_the_Jews_in_Norway",
    "linkText": "Judaism"
  },
  {
    "href": "https://en.wikipedia.org/wiki/Hjalmar_Andersen",
    "linkText": "Hjalmar Andersen"
  },
  {
    "href": "https://en.wikipedia.org/wiki/Hjortspring_boat",
    "linkText": "Hjortspring boat"
  },
  {
    "href": "https://en.wikipedia.org/wiki/Holmenkollen_ski_jump",
    "linkText": "Holmenkollen ski jump"
  },
  {
    "href": "https://en.wikipedia.org/wiki/Home_Guard_(Norway)",
    "linkText": "Home Guard"
  },
  {
    "href": "https://en.wikipedia.org/wiki/Hordaland",
    "linkText": "Hordaland"
  },
  {
    "href": "https://en.wikipedia.org/wiki/Horder",
    "linkText": "Horder"
  },
  {
    "href": "https://en.wikipedia.org/wiki/Hornindalsvatnet",
    "linkText": "Hornindalsvatnet"
  },
  {
    "href": "https://en.wikipedia.org/wiki/House_of_Gl%C3%BCcksburg",
    "linkText": "House of Schleswig-Holstein-Sonderburg-Glücksburg"
  },
  {
    "href": "https://en.wikipedia.org/wiki/House_of_Oldenburg",
    "linkText": "Oldenburg dynasty"
  },
  {
    "href": "https://en.wikipedia.org/wiki/House_of_Schleswig-Holstein-Sonderburg-Gl%C3%BCcksburg",
    "linkText": "house of Schleswig-Holstein-Sonderburg-Glücksburg"
  },
  {
    "href": "https://en.wikipedia.org/wiki/Human_Development_Index",
    "linkText": "Human Development Index"
  },
  {
    "href": "https://en.wikipedia.org/wiki/Humid_continental_climate",
    "linkText": "humid continental climates"
  },
  {
    "href": "https://en.wikipedia.org/wiki/Hydroelectricity",
    "linkText": "Hydroelectric plants"
  },
  {
    "href": "https://en.wikipedia.org/wiki/Hydropower",
    "linkText": "hydropower"
  },
  {
    "href": "https://en.wikipedia.org/wiki/Iceland",
    "linkText": "Iceland"
  },
  {
    "href": "https://en.wikipedia.org/wiki/Ice_hockey",
    "linkText": "Ice hockey"
  },
  {
    "href": "https://en.wikipedia.org/wiki/Immortal_(band)",
    "linkText": "Immortal"
  },
  {
    "href": "https://en.wikipedia.org/wiki/Impeachment",
    "linkText": "impeach"
  },
  {
    "href": "https://en.wikipedia.org/wiki/Impressionism",
    "linkText": "impressionism"
  },
  {
    "href": "https://en.wikipedia.org/wiki/Ina_Wroldsen",
    "linkText": "Ina Wroldsen"
  },
  {
    "href": "https://en.wikipedia.org/wiki/Indigenous_and_Tribal_Peoples_Convention,_1989",
    "linkText": "ILO-convention 169"
  },
  {
    "href": "https://en.wikipedia.org/wiki/Indigenous_people",
    "linkText": "indigenous people"
  },
  {
    "href": "https://en.wikipedia.org/wiki/Initial_public_offering",
    "linkText": "IPO"
  },
  {
    "href": "https://en.wikipedia.org/wiki/Inna",
    "linkText": "Inna"
  },
  {
    "href": "https://en.wikipedia.org/wiki/International_E-road_network",
    "linkText": "European route"
  },
  {
    "href": "https://en.wikipedia.org/wiki/International_Masters",
    "linkText": "International Masters"
  },
  {
    "href": "https://en.wikipedia.org/wiki/International_Monetary_Fund",
    "linkText": "IMF"
  },
  {
    "href": "https://en.wikipedia.org/wiki/International_Security_Assistance_Force",
    "linkText": "International Security Assistance Force"
  },
  {
    "href": "https://en.wikipedia.org/wiki/Invasion",
    "linkText": "invasion"
  },
  {
    "href": "https://en.wikipedia.org/wiki/Invasion_of_Norway",
    "linkText": "Invasion of Norway"
  },
  {
    "href": "https://en.wikipedia.org/wiki/Invertebrate",
    "linkText": "invertebrates"
  },
  {
    "href": "https://en.wikipedia.org/wiki/Iraqis_in_Norway",
    "linkText": "Iraqi"
  },
  {
    "href": "https://en.wikipedia.org/wiki/Iron_Age",
    "linkText": "Iron Age"
  },
  {
    "href": "https://en.wikipedia.org/wiki/Irreligion",
    "linkText": "religiously unaffiliated"
  },
  {
    "href": "https://en.wikipedia.org/wiki/Islam_in_Norway",
    "linkText": "Islam"
  },
  {
    "href": "https://en.wikipedia.org/wiki/Isle_of_Man",
    "linkText": "Isle of Man"
  },
  {
    "href": "https://en.wikipedia.org/wiki/Israeli%E2%80%93Palestinian_conflict",
    "linkText": "Israeli–Palestinian conflict"
  },
  {
    "href": "https://en.wikipedia.org/wiki/IUCN_Red_List",
    "linkText": "red list"
  },
  {
    "href": "https://en.wikipedia.org/wiki/Ivar_Giaever",
    "linkText": "Ivar Giaever"
  },
  {
    "href": "https://en.wikipedia.org/wiki/Ivo_Caprino",
    "linkText": "Ivo Caprino"
  },
  {
    "href": "https://en.wikipedia.org/wiki/J%C3%A4mtland",
    "linkText": "Jämtland"
  },
  {
    "href": "https://en.wikipedia.org/wiki/J%C3%A6ren_Line",
    "linkText": "Stavanger"
  },
  {
    "href": "https://en.wikipedia.org/wiki/J%C3%B8rgen_Moe",
    "linkText": "Jørgen Moe"
  },
  {
    "href": "https://en.wikipedia.org/wiki/Jaga_Jazzist",
    "linkText": "Jaga Jazzist"
  },
  {
    "href": "https://en.wikipedia.org/wiki/Jan_Erik_Vold",
    "linkText": "Jan Erik Vold"
  },
  {
    "href": "https://en.wikipedia.org/wiki/Jan_Garbarek",
    "linkText": "Jan Garbarek"
  },
  {
    "href": "https://en.wikipedia.org/wiki/Jan_Kj%C3%A6rstad",
    "linkText": "Jan Kjærstad"
  },
  {
    "href": "https://en.wikipedia.org/wiki/Jan_Mayen",
    "linkText": "Jan Mayen"
  },
  {
    "href": "https://en.wikipedia.org/wiki/Jan_P._Syse",
    "linkText": "Syse"
  },
  {
    "href": "https://en.wikipedia.org/wiki/Jan_Stenerud",
    "linkText": "Jan Stenerud"
  },
  {
    "href": "https://en.wikipedia.org/wiki/Jehovah%27s_Witnesses",
    "linkText": "Jehovah's Witnesses"
  },
  {
    "href": "https://en.wikipedia.org/wiki/Jennifer_Lopez",
    "linkText": "Jennifer Lopez"
  },
  {
    "href": "https://en.wikipedia.org/wiki/Jens_Bj%C3%B8rneboe",
    "linkText": "Jens Bjørneboe"
  },
  {
    "href": "https://en.wikipedia.org/wiki/Jens_Stoltenberg",
    "linkText": "Jens Stoltenberg"
  },
  {
    "href": "https://en.wikipedia.org/wiki/Johan_Borgen",
    "linkText": "Johan Borgen"
  },
  {
    "href": "https://en.wikipedia.org/wiki/Johan_Falkberget",
    "linkText": "Johan Falkberget"
  },
  {
    "href": "https://en.wikipedia.org/wiki/Johan_Galtung",
    "linkText": "Johan Galtung"
  },
  {
    "href": "https://en.wikipedia.org/wiki/Johan_Olav_Koss",
    "linkText": "Johan Olav Koss"
  },
  {
    "href": "https://en.wikipedia.org/wiki/Johan_Svendsen",
    "linkText": "Johan Svendsen"
  },
  {
    "href": "https://en.wikipedia.org/wiki/John_O%27Keefe_(neuroscientist)",
    "linkText": "John O'Keefe"
  },
  {
    "href": "https://en.wikipedia.org/wiki/Jonas_Lie_(writer)",
    "linkText": "Jonas Lie"
  },
  {
    "href": "https://en.wikipedia.org/wiki/Jon_Fosse",
    "linkText": "Jon Fosse"
  },
  {
    "href": "https://en.wikipedia.org/wiki/Josef_Terboven",
    "linkText": "Josef Terboven"
  },
  {
    "href": "https://en.wikipedia.org/wiki/Jostein_Gaarder",
    "linkText": "Jostein Gaarder"
  },
  {
    "href": "https://en.wikipedia.org/wiki/Julie_Bergan",
    "linkText": "Julie Bergan"
  },
  {
    "href": "https://en.wikipedia.org/wiki/K%C3%A5re_Willoch",
    "linkText": "Kåre Willoch"
  },
  {
    "href": "https://en.wikipedia.org/wiki/K%C3%B6ppen_climate_classification",
    "linkText": "Köppen"
  },
  {
    "href": "https://en.wikipedia.org/wiki/Kainun_institutti",
    "linkText": "Kainun institutti"
  },
  {
    "href": "https://en.wikipedia.org/wiki/Kalmar_Union",
    "linkText": "Kalmar Union"
  },
  {
    "href": "https://en.wikipedia.org/wiki/Karasjok",
    "linkText": "Kárášjohka"
  },
  {
    "href": "https://en.wikipedia.org/wiki/Karl_Ove_Knausg%C3%A5rd",
    "linkText": "Karl Ove Knausgård"
  },
  {
    "href": "https://en.wikipedia.org/wiki/Keynesian_economics",
    "linkText": "Keynesian economics"
  },
  {
    "href": "https://en.wikipedia.org/wiki/King_of_Norway",
    "linkText": "King of Norway"
  },
  {
    "href": "https://en.wikipedia.org/wiki/Kirsten_Br%C3%A5ten_Berg",
    "linkText": "Kirsten Bråten Berg"
  },
  {
    "href": "https://en.wikipedia.org/wiki/Kirsten_Flagstad",
    "linkText": "Kirsten Flagstad"
  },
  {
    "href": "https://en.wikipedia.org/wiki/Kitsch",
    "linkText": "kitsch"
  },
  {
    "href": "https://en.wikipedia.org/wiki/Kitty_Lange_Kielland",
    "linkText": "Kitty Kielland"
  },
  {
    "href": "https://en.wikipedia.org/wiki/Kjartan_Fl%C3%B8gstad",
    "linkText": "Kjartan Fløgstad"
  },
  {
    "href": "https://en.wikipedia.org/wiki/Kjell_Askildsen",
    "linkText": "Kjell Askildsen"
  },
  {
    "href": "https://en.wikipedia.org/wiki/Kjell_Aukrust",
    "linkText": "Kjell Aukrust"
  },
  {
    "href": "https://en.wikipedia.org/wiki/Klemens_Wenzel,_Prince_von_Metternich",
    "linkText": "Metternich"
  },
  {
    "href": "https://en.wikipedia.org/wiki/Knut_Alvsson",
    "linkText": "Knut Alvsson"
  },
  {
    "href": "https://en.wikipedia.org/wiki/Knut_Erik_Jensen",
    "linkText": "Knut Erik Jensen"
  },
  {
    "href": "https://en.wikipedia.org/wiki/Knut_Hamsun",
    "linkText": "Knut Hamsun"
  },
  {
    "href": "https://en.wikipedia.org/wiki/Kola_Peninsula",
    "linkText": "Kola Peninsula"
  },
  {
    "href": "https://en.wikipedia.org/wiki/Komsa_culture",
    "linkText": "Komsa culture"
  },
  {
    "href": "https://en.wikipedia.org/wiki/Kongsberg",
    "linkText": "Kongsberg"
  },
  {
    "href": "https://en.wikipedia.org/wiki/Kurds",
    "linkText": "Kurdish"
  },
  {
    "href": "https://en.wikipedia.org/wiki/Kvelertak",
    "linkText": "Kvelertak"
  },
  {
    "href": "https://en.wikipedia.org/wiki/Kven_language",
    "linkText": "Kven language"
  },
  {
    "href": "https://en.wikipedia.org/wiki/Kven_people",
    "linkText": "Kven"
  },
  {
    "href": "https://en.wikipedia.org/wiki/L%C3%BCbeck",
    "linkText": "Lübeck"
  },
  {
    "href": "https://en.wikipedia.org/wiki/Labour_Party_(Norway)",
    "linkText": "social democratic"
  },
  {
    "href": "https://en.wikipedia.org/wiki/Lars_Onsager",
    "linkText": "Lars Onsager"
  },
  {
    "href": "https://en.wikipedia.org/wiki/Lars_Saabye_Christensen",
    "linkText": "Lars Saabye Christensen"
  },
  {
    "href": "https://en.wikipedia.org/wiki/Last_glacial_period",
    "linkText": "last ice age"
  },
  {
    "href": "https://en.wikipedia.org/wiki/Latin",
    "linkText": "Latin"
  },
  {
    "href": "https://en.wikipedia.org/wiki/Latitude",
    "linkText": "latitude"
  },
  {
    "href": "https://en.wikipedia.org/wiki/Law_enforcement_in_Norway",
    "linkText": "law is enforced in Norway"
  },
  {
    "href": "https://en.wikipedia.org/wiki/Lefse",
    "linkText": "Lefse"
  },
  {
    "href": "https://en.wikipedia.org/wiki/Leif_Olve_Dolonen_Larsen",
    "linkText": "Leif Olve Dolonen Larsen"
  },
  {
    "href": "https://en.wikipedia.org/wiki/Leif_Ove_Andsnes",
    "linkText": "Leif Ove Andsnes"
  },
  {
    "href": "https://en.wikipedia.org/wiki/Lene_Marlin",
    "linkText": "Lene Marlin"
  },
  {
    "href": "https://en.wikipedia.org/wiki/Lene_Nystr%C3%B8m",
    "linkText": "Lene Nystrøm"
  },
  {
    "href": "https://en.wikipedia.org/wiki/Leona_Lewis",
    "linkText": "Leona Lewis"
  },
  {
    "href": "https://en.wikipedia.org/wiki/LGBT_rights_in_Norway",
    "linkText": "LGBT rights"
  },
  {
    "href": "https://en.wikipedia.org/wiki/Liberal_Party_(Norway)",
    "linkText": "liberal"
  },
  {
    "href": "https://en.wikipedia.org/wiki/Lichen",
    "linkText": "lichen"
  },
  {
    "href": "https://en.wikipedia.org/wiki/Liechtenstein",
    "linkText": "Liechtenstein"
  },
  {
    "href": "https://en.wikipedia.org/wiki/Lier,_Norway",
    "linkText": "Lier"
  },
  {
    "href": "https://en.wikipedia.org/wiki/Limerick",
    "linkText": "Limerick"
  },
  {
    "href": "https://en.wikipedia.org/wiki/Limestone",
    "linkText": "limestone"
  },
  {
    "href": "https://en.wikipedia.org/wiki/Lindisfarne",
    "linkText": "Lindisfarne"
  },
  {
    "href": "https://en.wikipedia.org/wiki/Line_of_succession_to_the_Norwegian_throne",
    "linkText": "unclear succession laws"
  },
  {
    "href": "https://en.wikipedia.org/wiki/Lionel_Richie",
    "linkText": "Lionel Richie"
  },
  {
    "href": "https://en.wikipedia.org/wiki/List_of_countries_and_territories_by_land_borders",
    "linkText": "1,619 km"
  },
  {
    "href": "https://en.wikipedia.org/wiki/List_of_countries_by_Failed_States_Index",
    "linkText": "Failed States Index"
  },
  {
    "href": "https://en.wikipedia.org/wiki/List_of_countries_by_GDP_(nominal)_per_capita",
    "linkText": "GDP per-capita"
  },
  {
    "href": "https://en.wikipedia.org/wiki/List_of_countries_by_GDP_(PPP)_per_capita",
    "linkText": "GDP (PPP) per-capita"
  },
  {
    "href": "https://en.wikipedia.org/wiki/List_of_countries_by_income_equality",
    "linkText": "Norway's low Gini coefficient"
  },
  {
    "href": "https://en.wikipedia.org/wiki/List_of_countries_by_inequality-adjusted_HDI",
    "linkText": "inequality-adjusted ranking"
  },
  {
    "href": "https://en.wikipedia.org/wiki/List_of_glaciers_in_Norway",
    "linkText": "Numerous glaciers"
  },
  {
    "href": "https://en.wikipedia.org/wiki/List_of_municipalities_of_Norway",
    "linkText": "municipalities"
  },
  {
    "href": "https://en.wikipedia.org/wiki/List_of_the_largest_airports_in_the_Nordic_countries",
    "linkText": "Seven airports"
  },
  {
    "href": "https://en.wikipedia.org/wiki/List_of_towns_and_cities_in_Norway",
    "linkText": "city"
  },
  {
    "href": "https://en.wikipedia.org/wiki/List_of_universities_in_Norway",
    "linkText": "universities"
  },
  {
    "href": "https://en.wikipedia.org/wiki/Living_condition",
    "linkText": "living conditions"
  },
  {
    "href": "https://en.wikipedia.org/wiki/Lofoten",
    "linkText": "Lofoten"
  },
  {
    "href": "https://en.wikipedia.org/wiki/Long_track_speed_skating",
    "linkText": "speed skating"
  },
  {
    "href": "https://en.wikipedia.org/wiki/Lovebugs_(band)",
    "linkText": "Lovebugs"
  },
  {
    "href": "https://en.wikipedia.org/wiki/Love_Parade",
    "linkText": "Love Parade"
  },
  {
    "href": "https://en.wikipedia.org/wiki/Ludvig_Holberg",
    "linkText": "Ludvig Holberg"
  },
  {
    "href": "https://en.wikipedia.org/wiki/Lule_Sami_language",
    "linkText": "Lule Sami"
  },
  {
    "href": "https://en.wikipedia.org/wiki/Lutefisk",
    "linkText": "lutefisk"
  },
  {
    "href": "https://en.wikipedia.org/wiki/Luxembourg",
    "linkText": "Luxembourg"
  },
  {
    "href": "https://en.wikipedia.org/wiki/M2M_(band)",
    "linkText": "M2M"
  },
  {
    "href": "https://en.wikipedia.org/wiki/Maelstrom_(ride)",
    "linkText": "Maelstrom"
  },
  {
    "href": "https://en.wikipedia.org/wiki/Magnus_Carlsen",
    "linkText": "Magnus Carlsen"
  },
  {
    "href": "https://en.wikipedia.org/wiki/Magnus_IV_of_Sweden",
    "linkText": "Magnus Erikson"
  },
  {
    "href": "https://en.wikipedia.org/wiki/Mainland",
    "linkText": "mainland"
  },
  {
    "href": "https://en.wikipedia.org/wiki/Marcus_Thrane",
    "linkText": "Marcus Thrane"
  },
  {
    "href": "https://en.wikipedia.org/wiki/Margaret_Berger",
    "linkText": "Margaret Berger"
  },
  {
    "href": "https://en.wikipedia.org/wiki/Margaret_I_of_Denmark",
    "linkText": "Margaret"
  },
  {
    "href": "https://en.wikipedia.org/wiki/Maria_Arredondo",
    "linkText": "Maria Arredondo"
  },
  {
    "href": "https://en.wikipedia.org/wiki/Maria_Mena",
    "linkText": "Maria Mena"
  },
  {
    "href": "https://en.wikipedia.org/wiki/Marion_Raven",
    "linkText": "Marion Raven"
  },
  {
    "href": "https://en.wikipedia.org/wiki/Marit_Bj%C3%B8rgen",
    "linkText": "Marit Bjørgen"
  },
  {
    "href": "https://en.wikipedia.org/wiki/Marit_Larsen",
    "linkText": "Marit Larsen"
  },
  {
    "href": "https://en.wikipedia.org/wiki/Mari_Boine",
    "linkText": "Mari Boine"
  },
  {
    "href": "https://en.wikipedia.org/wiki/Market_share",
    "linkText": "market share"
  },
  {
    "href": "https://en.wikipedia.org/wiki/Marshall_Plan",
    "linkText": "Marshall Plan"
  },
  {
    "href": "https://en.wikipedia.org/wiki/Master%27s_degree",
    "linkText": "Master"
  },
  {
    "href": "https://en.wikipedia.org/wiki/Maud_of_Wales",
    "linkText": "Maud of Wales"
  },
  {
    "href": "https://en.wikipedia.org/wiki/May-Britt_Moser",
    "linkText": "May-Britt Moser"
  },
  {
    "href": "https://en.wikipedia.org/wiki/Mayhem_(band)",
    "linkText": "Mayhem"
  },
  {
    "href": "https://en.wikipedia.org/wiki/Median_age",
    "linkText": "median age"
  },
  {
    "href": "https://en.wikipedia.org/wiki/Merchant_Navy",
    "linkText": "Merchant Marine"
  },
  {
    "href": "https://en.wikipedia.org/wiki/Methodists",
    "linkText": "Methodists"
  },
  {
    "href": "https://en.wikipedia.org/wiki/Michael_Schulte_(professor)",
    "linkText": "Michael Schulte"
  },
  {
    "href": "https://en.wikipedia.org/wiki/Middle_Ages",
    "linkText": "Middle Ages"
  },
  {
    "href": "https://en.wikipedia.org/wiki/Middle_East",
    "linkText": "Middle East"
  },
  {
    "href": "https://en.wikipedia.org/wiki/Middle_Latin",
    "linkText": "latinisation"
  },
  {
    "href": "https://en.wikipedia.org/wiki/Midnight_sun",
    "linkText": "Midnight sun"
  },
  {
    "href": "https://en.wikipedia.org/wiki/Mike_Mock",
    "linkText": "Mike Mock"
  },
  {
    "href": "https://en.wikipedia.org/wiki/Missionaries",
    "linkText": "missionaries"
  },
  {
    "href": "https://en.wikipedia.org/wiki/Mixed_economy",
    "linkText": "mixed economy"
  },
  {
    "href": "https://en.wikipedia.org/wiki/Mj%C3%B8sa",
    "linkText": "Mjøsa"
  },
  {
    "href": "https://en.wikipedia.org/wiki/Monarchy_of_Norway",
    "linkText": "King of Norway"
  },
  {
    "href": "https://en.wikipedia.org/wiki/Moose",
    "linkText": "moose"
  },
  {
    "href": "https://en.wikipedia.org/wiki/Moss",
    "linkText": "mosses"
  },
  {
    "href": "https://en.wikipedia.org/wiki/Moster_(island)",
    "linkText": "Moster"
  },
  {
    "href": "https://en.wikipedia.org/wiki/Multi-party_system",
    "linkText": "multi-party system"
  },
  {
    "href": "https://en.wikipedia.org/wiki/Music_of_Norway",
    "linkText": "music"
  },
  {
    "href": "https://en.wikipedia.org/wiki/Mutual_intelligibility",
    "linkText": "mutual intelligibility"
  },
  {
    "href": "https://en.wikipedia.org/wiki/Napoleon",
    "linkText": "Napoleon"
  },
  {
    "href": "https://en.wikipedia.org/wiki/Napoleonic_Wars",
    "linkText": "Napoleonic Wars"
  },
  {
    "href": "https://en.wikipedia.org/wiki/Nasjonal_Samling",
    "linkText": "Nasjonal Samling"
  },
  {
    "href": "https://en.wikipedia.org/wiki/National_Criminal_Investigation_Service_(Norway)",
    "linkText": "National Criminal Investigation Service"
  },
  {
    "href": "https://en.wikipedia.org/wiki/National_Geographic_Society",
    "linkText": "National Geographic"
  },
  {
    "href": "https://en.wikipedia.org/wiki/National_Police_Directorate",
    "linkText": "National Police Directorate"
  },
  {
    "href": "https://en.wikipedia.org/wiki/NATO",
    "linkText": "North Atlantic Treaty Organization"
  },
  {
    "href": "https://en.wikipedia.org/wiki/Nepheline_syenite",
    "linkText": "nepheline syenite"
  },
  {
    "href": "https://en.wikipedia.org/wiki/Newfoundland_(island)",
    "linkText": "Newfoundland"
  },
  {
    "href": "https://en.wikipedia.org/wiki/Nickel",
    "linkText": "nickel"
  },
  {
    "href": "https://en.wikipedia.org/wiki/Nicolai_Wergeland",
    "linkText": "by some"
  },
  {
    "href": "https://en.wikipedia.org/wiki/Nidaros",
    "linkText": "Nidaros"
  },
  {
    "href": "https://en.wikipedia.org/wiki/Nidaros_Cathedral",
    "linkText": "Nidaros Cathedral"
  },
  {
    "href": "https://en.wikipedia.org/wiki/Niels_Henrik_Abel",
    "linkText": "Niels Henrik Abel"
  },
  {
    "href": "https://en.wikipedia.org/wiki/Nils_Christie",
    "linkText": "Nils Christie"
  },
  {
    "href": "https://en.wikipedia.org/wiki/Nils_Gaup",
    "linkText": "Nils Gaup"
  },
  {
    "href": "https://en.wikipedia.org/wiki/Nobel_Prize_in_Literature",
    "linkText": "Nobel Prize in Literature"
  },
  {
    "href": "https://en.wikipedia.org/wiki/Nobel_Prize_in_Physiology_or_Medicine",
    "linkText": "Nobel Prize in Physiology or Medicine"
  },
  {
    "href": "https://en.wikipedia.org/wiki/Nordic_Council",
    "linkText": "Nordic Council"
  },
  {
    "href": "https://en.wikipedia.org/wiki/Nordic_countries",
    "linkText": "Nordic countries"
  },
  {
    "href": "https://en.wikipedia.org/wiki/Nordic_model",
    "linkText": "Nordic welfare model"
  },
  {
    "href": "https://en.wikipedia.org/wiki/Nordland",
    "linkText": "Nordland"
  },
  {
    "href": "https://en.wikipedia.org/wiki/Nore,_Norway",
    "linkText": "Nore"
  },
  {
    "href": "https://en.wikipedia.org/wiki/Norefjorden",
    "linkText": "Norefjorden"
  },
  {
    "href": "https://en.wikipedia.org/wiki/Normandy",
    "linkText": "Normandy"
  },
  {
    "href": "https://en.wikipedia.org/wiki/Normandy_landings",
    "linkText": "Normandy landings"
  },
  {
    "href": "https://en.wikipedia.org/wiki/Norse_mythology",
    "linkText": "Norse traditions"
  },
  {
    "href": "https://en.wikipedia.org/wiki/Norse_paganism",
    "linkText": "pagan"
  },
  {
    "href": "https://en.wikipedia.org/wiki/Norsk_Hydro",
    "linkText": "Norsk Hydro"
  },
  {
    "href": "https://en.wikipedia.org/wiki/Northern_Europe",
    "linkText": "Northern Europe"
  },
  {
    "href": "https://en.wikipedia.org/wiki/Northern_Norway",
    "linkText": "Northern Norway"
  },
  {
    "href": "https://en.wikipedia.org/wiki/Northern_Sami_language",
    "linkText": "Northern Sami"
  },
  {
    "href": "https://en.wikipedia.org/wiki/North_Germanic_languages",
    "linkText": "Scandinavian languages"
  },
  {
    "href": "https://en.wikipedia.org/wiki/North_Germanic_peoples",
    "linkText": "Norse people"
  },
  {
    "href": "https://en.wikipedia.org/wiki/North_Sea",
    "linkText": "North Sea"
  },
  {
    "href": "https://en.wikipedia.org/wiki/Nortraship",
    "linkText": "Nortraship"
  },
  {
    "href": "https://en.wikipedia.org/wiki/Norway%E2%80%93European_Union_relations",
    "linkText": "maintains close ties"
  },
  {
    "href": "https://en.wikipedia.org/wiki/Norway_(Epcot)",
    "linkText": "Norway"
  },
  {
    "href": "https://en.wikipedia.org/wiki/Norway_national_bandy_team",
    "linkText": "the men's national team"
  },
  {
    "href": "https://en.wikipedia.org/wiki/Norway_national_football_team",
    "linkText": "men's national football team"
  },
  {
    "href": "https://en.wikipedia.org/wiki/Norway_women%27s_national_bandy_team",
    "linkText": "the women's national team"
  },
  {
    "href": "https://en.wikipedia.org/wiki/Norway_women%27s_national_football_team",
    "linkText": "women's national team"
  },
  {
    "href": "https://en.wikipedia.org/wiki/Norway_women%27s_national_handball_team",
    "linkText": "women's handball national team"
  },
  {
    "href": "https://en.wikipedia.org/wiki/Norwegianization",
    "linkText": "Norwegianization"
  },
  {
    "href": "https://en.wikipedia.org/wiki/Norwegians",
    "linkText": "Norwegians"
  },
  {
    "href": "https://en.wikipedia.org/wiki/Norwegian_Air_Shuttle",
    "linkText": "Norwegian Air Shuttle"
  },
  {
    "href": "https://en.wikipedia.org/wiki/Norwegian_American",
    "linkText": "Norwegian Americans"
  },
  {
    "href": "https://en.wikipedia.org/wiki/Norwegian_Armed_Forces",
    "linkText": "Norwegian Armed Forces"
  },
  {
    "href": "https://en.wikipedia.org/wiki/Norwegian_Army",
    "linkText": "Norwegian Army"
  },
  {
    "href": "https://en.wikipedia.org/wiki/Norwegian_Association_for_Women%27s_Rights",
    "linkText": "Norwegian Association for Women's Rights"
  },
  {
    "href": "https://en.wikipedia.org/wiki/Norwegian_Campaign",
    "linkText": "Norwegian Campaign"
  },
  {
    "href": "https://en.wikipedia.org/wiki/Norwegian_Canadian",
    "linkText": "Norwegian ancestry"
  },
  {
    "href": "https://en.wikipedia.org/wiki/Norwegian_Constitution_Day",
    "linkText": "Syttende Mai"
  },
  {
    "href": "https://en.wikipedia.org/wiki/Norwegian_Council_of_State",
    "linkText": "Council of State"
  },
  {
    "href": "https://en.wikipedia.org/wiki/Norwegian_Cyber_Defence_Force",
    "linkText": "Norwegian Cyber Defence Force"
  },
  {
    "href": "https://en.wikipedia.org/wiki/Norwegian_Humanist_Association",
    "linkText": "Norwegian Humanist Association"
  },
  {
    "href": "https://en.wikipedia.org/wiki/Norwegian_Independent_Company_1",
    "linkText": "Norwegian Independent Company 1"
  },
  {
    "href": "https://en.wikipedia.org/wiki/Norwegian_krone",
    "linkText": "kroner"
  },
  {
    "href": "https://en.wikipedia.org/wiki/Norwegian_Labour_Party",
    "linkText": "Norwegian Labour Party"
  },
  {
    "href": "https://en.wikipedia.org/wiki/Norwegian_language",
    "linkText": "Norwegian language"
  },
  {
    "href": "https://en.wikipedia.org/wiki/Norwegian_language_conflict",
    "linkText": "strong political and cultural controversies"
  },
  {
    "href": "https://en.wikipedia.org/wiki/Norwegian_Ministry_of_Defence",
    "linkText": "Norwegian Ministry of Defence"
  },
  {
    "href": "https://en.wikipedia.org/wiki/Norwegian_Ministry_of_Education_and_Research",
    "linkText": "Norwegian Ministry of Education and Research"
  },
  {
    "href": "https://en.wikipedia.org/wiki/Norwegian_Ministry_of_Transport_and_Communications",
    "linkText": "Norwegian Ministry of Transport and Communications"
  },
  {
    "href": "https://en.wikipedia.org/wiki/Norwegian_National_Authority_for_the_Investigation_and_Prosecution_of_Economic_and_Environmental_Crime",
    "linkText": "Norwegian National Authority for the Investigation and Prosecution of Economic and Environmental Crime"
  },
  {
    "href": "https://en.wikipedia.org/wiki/Norwegian_National_Rail_Administration",
    "linkText": "Norwegian National Rail Administration"
  },
  {
    "href": "https://en.wikipedia.org/wiki/Norwegian_passport",
    "linkText": "Norwegian passports"
  },
  {
    "href": "https://en.wikipedia.org/wiki/Norwegian_people",
    "linkText": "Norwegian"
  },
  {
    "href": "https://en.wikipedia.org/wiki/Norwegian_Police_Security_Service",
    "linkText": "Norwegian Police Security Agency"
  },
  {
    "href": "https://en.wikipedia.org/wiki/Norwegian_Police_Service",
    "linkText": "Norwegian Police Service"
  },
  {
    "href": "https://en.wikipedia.org/wiki/Norwegian_Public_Roads_Administration",
    "linkText": "Norwegian Public Roads Administration"
  },
  {
    "href": "https://en.wikipedia.org/wiki/Norwegian_resistance_movement",
    "linkText": "resistance movement"
  },
  {
    "href": "https://en.wikipedia.org/wiki/Norwegian_romantic_nationalism",
    "linkText": "Norwegian romantic nationalism"
  },
  {
    "href": "https://en.wikipedia.org/wiki/Norwegian_Royal_Family",
    "linkText": "King"
  },
  {
    "href": "https://en.wikipedia.org/wiki/Norwegian_Sea",
    "linkText": "Norwegian Sea"
  },
  {
    "href": "https://en.wikipedia.org/wiki/Norwegian_Sign_Language",
    "linkText": "Norwegian Sign Language"
  },
  {
    "href": "https://en.wikipedia.org/wiki/Norwegian_State_Railways",
    "linkText": "Norges Statsbaner"
  },
  {
    "href": "https://en.wikipedia.org/wiki/Norwegian_Vietnamese",
    "linkText": "Vietnamese"
  },
  {
    "href": "https://en.wikipedia.org/wiki/Norwegian_Women%27s_Lobby",
    "linkText": "Norwegian Women's Lobby"
  },
  {
    "href": "https://en.wikipedia.org/wiki/NSB_Night_Train",
    "linkText": "night trains"
  },
  {
    "href": "https://en.wikipedia.org/wiki/Nynorsk",
    "linkText": "Nynorsk"
  },
  {
    "href": "https://en.wikipedia.org/wiki/Nynorsk_language",
    "linkText": "Nynorsk"
  },
  {
    "href": "https://en.wikipedia.org/wiki/Oceanic_climate",
    "linkText": "oceanic climate"
  },
  {
    "href": "https://en.wikipedia.org/wiki/Odd_Hassel",
    "linkText": "Odd Hassel"
  },
  {
    "href": "https://en.wikipedia.org/wiki/Odd_Nerdrum",
    "linkText": "Odd Nerdrum"
  },
  {
    "href": "https://en.wikipedia.org/wiki/Odd_Nordstoga",
    "linkText": "Odd Nordstoga"
  },
  {
    "href": "https://en.wikipedia.org/wiki/OECD",
    "linkText": "OECD"
  },
  {
    "href": "https://en.wikipedia.org/wiki/OECD_Better_Life_Index",
    "linkText": "Better Life Index"
  },
  {
    "href": "https://en.wikipedia.org/wiki/Ohthere_of_H%C3%A5logaland",
    "linkText": "Ohthere of Hålogaland"
  },
  {
    "href": "https://en.wikipedia.org/wiki/Olaf_Bull",
    "linkText": "Olaf Bull"
  },
  {
    "href": "https://en.wikipedia.org/wiki/Olaf_II_of_Denmark",
    "linkText": "Olaf IV"
  },
  {
    "href": "https://en.wikipedia.org/wiki/Olaf_II_of_Norway",
    "linkText": "St. Olav"
  },
  {
    "href": "https://en.wikipedia.org/wiki/Olaf_I_of_Norway",
    "linkText": "Olav Tryggvasson"
  },
  {
    "href": "https://en.wikipedia.org/wiki/Olav_Duun",
    "linkText": "Olav Duun"
  },
  {
    "href": "https://en.wikipedia.org/wiki/Olav_H._Hauge",
    "linkText": "Olav H. Hauge"
  },
  {
    "href": "https://en.wikipedia.org/wiki/Olav_J%C3%B8rgen_Hegge",
    "linkText": "Olav Jørgen Hegge"
  },
  {
    "href": "https://en.wikipedia.org/wiki/Old_English",
    "linkText": "Old English"
  },
  {
    "href": "https://en.wikipedia.org/wiki/Old_Moster_Church",
    "linkText": "Christian church"
  },
  {
    "href": "https://en.wikipedia.org/wiki/Old_Norse",
    "linkText": "Old Norse"
  },
  {
    "href": "https://en.wikipedia.org/wiki/Ole_Einar_Bj%C3%B8rndalen",
    "linkText": "Ole Einar Bjørndalen"
  },
  {
    "href": "https://en.wikipedia.org/wiki/Olivine",
    "linkText": "olivine"
  },
  {
    "href": "https://en.wikipedia.org/wiki/Olympic_Games",
    "linkText": "Olympic Games"
  },
  {
    "href": "https://en.wikipedia.org/wiki/One_Direction",
    "linkText": "One Direction"
  },
  {
    "href": "https://en.wikipedia.org/wiki/OPEC",
    "linkText": "OPEC"
  },
  {
    "href": "https://en.wikipedia.org/wiki/Operation_Blue_Star",
    "linkText": "Operation Blue Star"
  },
  {
    "href": "https://en.wikipedia.org/wiki/Operation_Haudegen",
    "linkText": "established a meteorological station"
  },
  {
    "href": "https://en.wikipedia.org/wiki/Operation_Weser%C3%BCbung",
    "linkText": "invaded by German forces"
  },
  {
    "href": "https://en.wikipedia.org/wiki/Oppland",
    "linkText": "Oppland"
  },
  {
    "href": "https://en.wikipedia.org/wiki/Organisation_for_Economic_Co-operation_and_Development",
    "linkText": "Organisation for Economic Co-operation and Development"
  },
  {
    "href": "https://en.wikipedia.org/wiki/Oriental_Orthodoxy_in_Norway",
    "linkText": "Oriental Orthodox Christianity"
  },
  {
    "href": "https://en.wikipedia.org/wiki/Orkney",
    "linkText": "Orkney"
  },
  {
    "href": "https://en.wikipedia.org/wiki/Orosius",
    "linkText": "Orosius"
  },
  {
    "href": "https://en.wikipedia.org/wiki/Oslo",
    "linkText": "Oslo"
  },
  {
    "href": "https://en.wikipedia.org/wiki/Oslofjord",
    "linkText": "Oslofjord"
  },
  {
    "href": "https://en.wikipedia.org/wiki/Oslo_Accords",
    "linkText": "Oslo Accords"
  },
  {
    "href": "https://en.wikipedia.org/wiki/Oslo_Airport,_Gardermoen",
    "linkText": "Oslo Airport, Gardermoen"
  },
  {
    "href": "https://en.wikipedia.org/wiki/Oslo_Commuter_Rail",
    "linkText": "Oslo"
  },
  {
    "href": "https://en.wikipedia.org/wiki/Oslo_Freedom_Forum",
    "linkText": "Oslo Freedom Forum"
  },
  {
    "href": "https://en.wikipedia.org/wiki/Oslo_Stock_Exchange",
    "linkText": "Oslo Stock Exchange"
  },
  {
    "href": "https://en.wikipedia.org/wiki/Paal_Nilssen-Love",
    "linkText": "Paal Nilssen-Love"
  },
  {
    "href": "https://en.wikipedia.org/wiki/Pakistani_Norwegians",
    "linkText": "Norwegians of Pakistani descent"
  },
  {
    "href": "https://en.wikipedia.org/wiki/Parliamentary_system",
    "linkText": "parliamentary system"
  },
  {
    "href": "https://en.wikipedia.org/wiki/Parliament_of_Norway",
    "linkText": "Parliament"
  },
  {
    "href": "https://en.wikipedia.org/wiki/Party-list_proportional_representation",
    "linkText": "party-lists"
  },
  {
    "href": "https://en.wikipedia.org/wiki/Peace_and_conflict_studies",
    "linkText": "peace and conflict studies"
  },
  {
    "href": "https://en.wikipedia.org/wiki/Peace_studies",
    "linkText": "peace studies"
  },
  {
    "href": "https://en.wikipedia.org/wiki/Pentecostalism",
    "linkText": "Pentecostals"
  },
  {
    "href": "https://en.wikipedia.org/wiki/Permafrost",
    "linkText": "Permafrost"
  },
  {
    "href": "https://en.wikipedia.org/wiki/Personal_union",
    "linkText": "personal union"
  },
  {
    "href": "https://en.wikipedia.org/wiki/Per_capita",
    "linkText": "per-capita"
  },
  {
    "href": "https://en.wikipedia.org/wiki/Peter_Christen_Asbj%C3%B8rnsen",
    "linkText": "Peter Christen Asbjørnsen"
  },
  {
    "href": "https://en.wikipedia.org/wiki/Peter_I_Island",
    "linkText": "Peter I Island"
  },
  {
    "href": "https://en.wikipedia.org/wiki/Peter_Waage",
    "linkText": "Peter Waage"
  },
  {
    "href": "https://en.wikipedia.org/wiki/Petoro",
    "linkText": "Petoro"
  },
  {
    "href": "https://en.wikipedia.org/wiki/Petroleum_industry",
    "linkText": "petroleum industry"
  },
  {
    "href": "https://en.wikipedia.org/wiki/Petter_Dass",
    "linkText": "Petter Dass"
  },
  {
    "href": "https://en.wikipedia.org/wiki/Petty_kingdoms_of_Norway",
    "linkText": "petty kingdoms"
  },
  {
    "href": "https://en.wikipedia.org/wiki/Phillips_Petroleum_Company",
    "linkText": "Phillips Petroleum Company"
  },
  {
    "href": "https://en.wikipedia.org/wiki/Philology",
    "linkText": "philology"
  },
  {
    "href": "https://en.wikipedia.org/wiki/Pinnekj%C3%B8tt",
    "linkText": "pinnekjøtt"
  },
  {
    "href": "https://en.wikipedia.org/wiki/Plug-in_electric_vehicles_in_Norway",
    "linkText": "plug-in electric vehicles per capita"
  },
  {
    "href": "https://en.wikipedia.org/wiki/Plurality_voting_system",
    "linkText": "plural-member"
  },
  {
    "href": "https://en.wikipedia.org/wiki/Poetic_Edda",
    "linkText": "Eddaic poems"
  },
  {
    "href": "https://en.wikipedia.org/wiki/Polar_bear",
    "linkText": "polar bear"
  },
  {
    "href": "https://en.wikipedia.org/wiki/Polar_climate",
    "linkText": "tundra/alpine/polar climate"
  },
  {
    "href": "https://en.wikipedia.org/wiki/Polar_night",
    "linkText": "polar night"
  },
  {
    "href": "https://en.wikipedia.org/wiki/Pool_frog",
    "linkText": "pool frog"
  },
  {
    "href": "https://en.wikipedia.org/wiki/Prime_Minister_of_Norway",
    "linkText": "prime minister"
  },
  {
    "href": "https://en.wikipedia.org/wiki/Privy_council",
    "linkText": "privy council"
  },
  {
    "href": "https://en.wikipedia.org/wiki/Progress_Party_(Norway)",
    "linkText": "Fremskrittspartiet"
  },
  {
    "href": "https://en.wikipedia.org/wiki/Proportional_representation",
    "linkText": "proportional representation"
  },
  {
    "href": "https://en.wikipedia.org/wiki/Proto-Indo-Europeans",
    "linkText": "Indo-European"
  },
  {
    "href": "https://en.wikipedia.org/wiki/Queen_Maud_Land",
    "linkText": "Queen Maud Land"
  },
  {
    "href": "https://en.wikipedia.org/wiki/Quisling_regime",
    "linkText": "collaborationist government under German control"
  },
  {
    "href": "https://en.wikipedia.org/wiki/R%C3%B6yksopp",
    "linkText": "Röyksopp"
  },
  {
    "href": "https://en.wikipedia.org/wiki/R%C3%B8ros",
    "linkText": "Røros"
  },
  {
    "href": "https://en.wikipedia.org/wiki/R%C3%B8st",
    "linkText": "Røst"
  },
  {
    "href": "https://en.wikipedia.org/wiki/Ragnar_Frisch",
    "linkText": "Ragnar Frisch"
  },
  {
    "href": "https://en.wikipedia.org/wiki/Rain_shadow",
    "linkText": "rain shadow"
  },
  {
    "href": "https://en.wikipedia.org/wiki/Raspeball",
    "linkText": "raspeball"
  },
  {
    "href": "https://en.wikipedia.org/wiki/Rationing",
    "linkText": "rationing"
  },
  {
    "href": "https://en.wikipedia.org/wiki/Rechtsstaat",
    "linkText": "states of justice"
  },
  {
    "href": "https://en.wikipedia.org/wiki/Reformation_in_Denmark%E2%80%93Norway_and_Holstein",
    "linkText": "introduction of Protestantism"
  },
  {
    "href": "https://en.wikipedia.org/wiki/Regjeringskvartalet",
    "linkText": "government quarter"
  },
  {
    "href": "https://en.wikipedia.org/wiki/Reichskommissar",
    "linkText": "Reichskommissar"
  },
  {
    "href": "https://en.wikipedia.org/wiki/Reindeer",
    "linkText": "reindeer"
  },
  {
    "href": "https://en.wikipedia.org/wiki/Religion_in_Iraq",
    "linkText": "Assyrians and Chaldeans"
  },
  {
    "href": "https://en.wikipedia.org/wiki/Reporters_Without_Borders",
    "linkText": "Reporters Without Borders"
  },
  {
    "href": "https://en.wikipedia.org/wiki/Representative_democracy",
    "linkText": "representative democracy"
  },
  {
    "href": "https://en.wikipedia.org/wiki/Reuters",
    "linkText": "Reuters"
  },
  {
    "href": "https://en.wikipedia.org/wiki/Right_to_education",
    "linkText": "right to education"
  },
  {
    "href": "https://en.wikipedia.org/wiki/Right_to_work",
    "linkText": "right to work"
  },
  {
    "href": "https://en.wikipedia.org/wiki/Rihanna",
    "linkText": "Rihanna"
  },
  {
    "href": "https://en.wikipedia.org/wiki/Rikard_Nordraak",
    "linkText": "Rikard Nordraak"
  },
  {
    "href": "https://en.wikipedia.org/wiki/Rock_carving",
    "linkText": "rock carvings"
  },
  {
    "href": "https://en.wikipedia.org/wiki/Rock_carvings",
    "linkText": "Rock carvings"
  },
  {
    "href": "https://en.wikipedia.org/wiki/Rock_carvings_at_Alta",
    "linkText": "rock carvings at Alta"
  },
  {
    "href": "https://en.wikipedia.org/wiki/Rock_music_in_Norway",
    "linkText": "rock music in Norway"
  },
  {
    "href": "https://en.wikipedia.org/wiki/Rogaland",
    "linkText": "Rogaland"
  },
  {
    "href": "https://en.wikipedia.org/wiki/Rolf_Jacobsen_(poet)",
    "linkText": "Rolf Jacobsen"
  },
  {
    "href": "https://en.wikipedia.org/wiki/Romani_language",
    "linkText": "Romani"
  },
  {
    "href": "https://en.wikipedia.org/wiki/Romanticism",
    "linkText": "romantic"
  },
  {
    "href": "https://en.wikipedia.org/wiki/Romantic_nationalism",
    "linkText": "national romanticism"
  },
  {
    "href": "https://en.wikipedia.org/wiki/Roman_Catholicism_in_Norway",
    "linkText": "Roman Catholicism"
  },
  {
    "href": "https://en.wikipedia.org/wiki/Roman_Catholic_Church",
    "linkText": "Roman Catholic Church"
  },
  {
    "href": "https://en.wikipedia.org/wiki/Roman_Iron_Age",
    "linkText": "Roman Iron Ages"
  },
  {
    "href": "https://en.wikipedia.org/wiki/Romsdalsfjord",
    "linkText": "Romsdalsfjord"
  },
  {
    "href": "https://en.wikipedia.org/wiki/Rotherhithe",
    "linkText": "Rotherhithe"
  },
  {
    "href": "https://en.wikipedia.org/wiki/Royal_descent",
    "linkText": "royal"
  },
  {
    "href": "https://en.wikipedia.org/wiki/Royal_Norwegian_Air_Force",
    "linkText": "Royal Norwegian Air Force"
  },
  {
    "href": "https://en.wikipedia.org/wiki/Royal_Norwegian_Navy",
    "linkText": "Royal Norwegian Navy"
  },
  {
    "href": "https://en.wikipedia.org/wiki/Royal_Palace,_Oslo",
    "linkText": "Royal Palace"
  },
  {
    "href": "https://en.wikipedia.org/wiki/Runes",
    "linkText": "runes"
  },
  {
    "href": "https://en.wikipedia.org/wiki/Russia",
    "linkText": "Russia"
  },
  {
    "href": "https://en.wikipedia.org/wiki/S%C3%A1mi_Parliament_of_Norway",
    "linkText": "Sámi Parliament"
  },
  {
    "href": "https://en.wikipedia.org/wiki/S%C3%A1mi_people",
    "linkText": "Sámi people"
  },
  {
    "href": "https://en.wikipedia.org/wiki/S%C3%A1mi_shamanism",
    "linkText": "shamanistic religion"
  },
  {
    "href": "https://en.wikipedia.org/wiki/S%C3%A1pmi",
    "linkText": "Sápmi"
  },
  {
    "href": "https://en.wikipedia.org/wiki/Salmon",
    "linkText": "salmon"
  },
  {
    "href": "https://en.wikipedia.org/wiki/Same-sex_marriage",
    "linkText": "marriage equality"
  },
  {
    "href": "https://en.wikipedia.org/wiki/Same-sex_marriage_in_Norway",
    "linkText": "Norway became the sixth country"
  },
  {
    "href": "https://en.wikipedia.org/wiki/Sandstone",
    "linkText": "sandstone"
  },
  {
    "href": "https://en.wikipedia.org/wiki/Satyricon_(band)",
    "linkText": "Satyricon"
  },
  {
    "href": "https://en.wikipedia.org/wiki/Scandinavia",
    "linkText": "Scandinavia"
  },
  {
    "href": "https://en.wikipedia.org/wiki/Scandinavian_Airlines",
    "linkText": "Scandinavian Airlines"
  },
  {
    "href": "https://en.wikipedia.org/wiki/Scandinavian_Mountains",
    "linkText": "Scandinavian Mountains"
  },
  {
    "href": "https://en.wikipedia.org/wiki/Scandinavian_Peninsula",
    "linkText": "Scandinavian Peninsula"
  },
  {
    "href": "https://en.wikipedia.org/wiki/Scandoromani_language",
    "linkText": "Scandoromani language"
  },
  {
    "href": "https://en.wikipedia.org/wiki/Schengen_Agreement",
    "linkText": "Schengen Agreement"
  },
  {
    "href": "https://en.wikipedia.org/wiki/Schengen_Area",
    "linkText": "Schengen Area"
  },
  {
    "href": "https://en.wikipedia.org/wiki/Schleswig-Holstein",
    "linkText": "German state of Schleswig-Holstein"
  },
  {
    "href": "https://en.wikipedia.org/wiki/Seafarer",
    "linkText": "seafarers"
  },
  {
    "href": "https://en.wikipedia.org/wiki/Second_World_War",
    "linkText": "Second World War"
  },
  {
    "href": "https://en.wikipedia.org/wiki/Senja",
    "linkText": "Senja"
  },
  {
    "href": "https://en.wikipedia.org/wiki/Separation_of_church_and_state",
    "linkText": "Separation of church and state"
  },
  {
    "href": "https://en.wikipedia.org/wiki/Separation_of_powers",
    "linkText": "divides state power"
  },
  {
    "href": "https://en.wikipedia.org/wiki/Seventh-day_Adventists",
    "linkText": "Seventh-day Adventists"
  },
  {
    "href": "https://en.wikipedia.org/wiki/Shakira",
    "linkText": "Shakira"
  },
  {
    "href": "https://en.wikipedia.org/wiki/Shamans",
    "linkText": "shamans"
  },
  {
    "href": "https://en.wikipedia.org/wiki/Shetland",
    "linkText": "Shetland"
  },
  {
    "href": "https://en.wikipedia.org/wiki/Ship_transport",
    "linkText": "merchant fleet"
  },
  {
    "href": "https://en.wikipedia.org/wiki/Sigrid_(singer)",
    "linkText": "Sigrid"
  },
  {
    "href": "https://en.wikipedia.org/wiki/Sigrid_Undset",
    "linkText": "Sigrid Undset"
  },
  {
    "href": "https://en.wikipedia.org/wiki/Sigurd_Hoel",
    "linkText": "Sigurd Hoel"
  },
  {
    "href": "https://en.wikipedia.org/wiki/Sikhism",
    "linkText": "Sikhism"
  },
  {
    "href": "https://en.wikipedia.org/wiki/Single_market_of_the_European_Union",
    "linkText": "internal market"
  },
  {
    "href": "https://en.wikipedia.org/wiki/Skagerrak",
    "linkText": "Skagerrak"
  },
  {
    "href": "https://en.wikipedia.org/wiki/Skald",
    "linkText": "skaldic"
  },
  {
    "href": "https://en.wikipedia.org/wiki/Ski_jumping",
    "linkText": "ski jumping"
  },
  {
    "href": "https://en.wikipedia.org/wiki/Skj%C3%A5k",
    "linkText": "Skjåk"
  },
  {
    "href": "https://en.wikipedia.org/wiki/Slate",
    "linkText": "slate"
  },
  {
    "href": "https://en.wikipedia.org/wiki/Smalahove",
    "linkText": "smalahove"
  },
  {
    "href": "https://en.wikipedia.org/wiki/Socialist_Left_Party_(Norway)",
    "linkText": "Socialist Left Party"
  },
  {
    "href": "https://en.wikipedia.org/wiki/Socially_responsible_investing",
    "linkText": "ethical guidelines"
  },
  {
    "href": "https://en.wikipedia.org/wiki/Social_sciences",
    "linkText": "social sciences"
  },
  {
    "href": "https://en.wikipedia.org/wiki/Social_security",
    "linkText": "social security"
  },
  {
    "href": "https://en.wikipedia.org/wiki/Sognefjord",
    "linkText": "Sognefjord"
  },
  {
    "href": "https://en.wikipedia.org/wiki/Somali_people",
    "linkText": "Somali"
  },
  {
    "href": "https://en.wikipedia.org/wiki/Sonja_Henie",
    "linkText": "Sonja Henie"
  },
  {
    "href": "https://en.wikipedia.org/wiki/Sophie_Ellis-Bextor",
    "linkText": "Sophie Ellis-Bextor"
  },
  {
    "href": "https://en.wikipedia.org/wiki/Sophus_Lie",
    "linkText": "Sophus Lie"
  },
  {
    "href": "https://en.wikipedia.org/wiki/Southern_Sami_language",
    "linkText": "Southern Sami"
  },
  {
    "href": "https://en.wikipedia.org/wiki/South_Pole",
    "linkText": "South Pole"
  },
  {
    "href": "https://en.wikipedia.org/wiki/Sovereign_state",
    "linkText": "sovereign state"
  },
  {
    "href": "https://en.wikipedia.org/wiki/Sovereign_wealth_fund",
    "linkText": "sovereign wealth fund"
  },
  {
    "href": "https://en.wikipedia.org/wiki/Sperm_whale",
    "linkText": "sperm whale"
  },
  {
    "href": "https://en.wikipedia.org/wiki/Stagflation",
    "linkText": "stagflated economy"
  },
  {
    "href": "https://en.wikipedia.org/wiki/Standard_gauge",
    "linkText": "standard gauge"
  },
  {
    "href": "https://en.wikipedia.org/wiki/Standard_Mandarin",
    "linkText": "Chinese (Mandarin)"
  },
  {
    "href": "https://en.wikipedia.org/wiki/Stargate_(production_team)",
    "linkText": "Stargate"
  },
  {
    "href": "https://en.wikipedia.org/wiki/Starvation",
    "linkText": "starvation"
  },
  {
    "href": "https://en.wikipedia.org/wiki/State%27s_Direct_Financial_Interest",
    "linkText": "SDFI"
  },
  {
    "href": "https://en.wikipedia.org/wiki/State_church",
    "linkText": "state church"
  },
  {
    "href": "https://en.wikipedia.org/wiki/Statkraft",
    "linkText": "Statkraft"
  },
  {
    "href": "https://en.wikipedia.org/wiki/Statoil",
    "linkText": "Statoil"
  },
  {
    "href": "https://en.wikipedia.org/wiki/Stavanger",
    "linkText": "Stavanger"
  },
  {
    "href": "https://en.wikipedia.org/wiki/Stave_church",
    "linkText": "stave churches"
  },
  {
    "href": "https://en.wikipedia.org/wiki/Stein_Mehren",
    "linkText": "Stein Mehren"
  },
  {
    "href": "https://en.wikipedia.org/wiki/Stein_Rokkan",
    "linkText": "Stein Rokkan"
  },
  {
    "href": "https://en.wikipedia.org/wiki/Stone_Age",
    "linkText": "Stone Age"
  },
  {
    "href": "https://en.wikipedia.org/wiki/Stone_ship",
    "linkText": "stone ships"
  },
  {
    "href": "https://en.wikipedia.org/wiki/Storting",
    "linkText": "parliament"
  },
  {
    "href": "https://en.wikipedia.org/wiki/Strasbourg",
    "linkText": "Strasbourg"
  },
  {
    "href": "https://en.wikipedia.org/wiki/Subantarctic",
    "linkText": "Subantarctic"
  },
  {
    "href": "https://en.wikipedia.org/wiki/Subarctic_climate",
    "linkText": "subarctic climate"
  },
  {
    "href": "https://en.wikipedia.org/wiki/Summer_Olympics",
    "linkText": "Summer Olympics"
  },
  {
    "href": "https://en.wikipedia.org/wiki/Supersilent",
    "linkText": "Supersilent"
  },
  {
    "href": "https://en.wikipedia.org/wiki/Supreme_Court_of_Norway",
    "linkText": "Supreme Court"
  },
  {
    "href": "https://en.wikipedia.org/wiki/Susanne_Sundf%C3%B8r",
    "linkText": "Susanne Sundfør"
  },
  {
    "href": "https://en.wikipedia.org/wiki/Svalbard",
    "linkText": "Svalbard"
  },
  {
    "href": "https://en.wikipedia.org/wiki/Sweden",
    "linkText": "Sweden"
  },
  {
    "href": "https://en.wikipedia.org/wiki/Swedish%E2%80%93Norwegian_War_(1814)",
    "linkText": "Norwegian–Swedish War"
  },
  {
    "href": "https://en.wikipedia.org/wiki/Swedish_language",
    "linkText": "Swedish"
  },
  {
    "href": "https://en.wikipedia.org/wiki/Tarjei_Vesaas",
    "linkText": "Tarjei Vesaas"
  },
  {
    "href": "https://en.wikipedia.org/wiki/Telenor",
    "linkText": "Telenor"
  },
  {
    "href": "https://en.wikipedia.org/wiki/Terje_Rypdal",
    "linkText": "Terje Rypdal"
  },
  {
    "href": "https://en.wikipedia.org/wiki/Territorial_claims_in_Antarctica",
    "linkText": "lays claim"
  },
  {
    "href": "https://en.wikipedia.org/wiki/The_Church_of_Jesus_Christ_of_Latter-day_Saints",
    "linkText": "The Church of Jesus Christ of Latter-day Saints"
  },
  {
    "href": "https://en.wikipedia.org/wiki/The_Government_Pension_Fund_of_Norway",
    "linkText": "\"Government Pension Fund – Global\""
  },
  {
    "href": "https://en.wikipedia.org/wiki/The_Saturdays",
    "linkText": "The Saturdays"
  },
  {
    "href": "https://en.wikipedia.org/wiki/Thing_(assembly)",
    "linkText": "things"
  },
  {
    "href": "https://en.wikipedia.org/wiki/Thomas_Mathiesen",
    "linkText": "Thomas Mathiesen"
  },
  {
    "href": "https://en.wikipedia.org/wiki/Titanium",
    "linkText": "titanium"
  },
  {
    "href": "https://en.wikipedia.org/wiki/Tithe",
    "linkText": "tithes"
  },
  {
    "href": "https://en.wikipedia.org/wiki/Tone_Damli",
    "linkText": "Tone Damli"
  },
  {
    "href": "https://en.wikipedia.org/wiki/Topography",
    "linkText": "topography"
  },
  {
    "href": "https://en.wikipedia.org/wiki/Total_fertility_rate",
    "linkText": "total fertility rate"
  },
  {
    "href": "https://en.wikipedia.org/wiki/Tove_Stang_Dahl",
    "linkText": "Tove Stang Dahl"
  },
  {
    "href": "https://en.wikipedia.org/wiki/Tr%C3%B8ndelag",
    "linkText": "Trøndelag"
  },
  {
    "href": "https://en.wikipedia.org/wiki/Tr%C3%B8ndelag_Commuter_Rail",
    "linkText": "Trondheim"
  },
  {
    "href": "https://en.wikipedia.org/wiki/Trafalgar_Square",
    "linkText": "Trafalgar Square"
  },
  {
    "href": "https://en.wikipedia.org/wiki/Transparency_(market)",
    "linkText": "transparent"
  },
  {
    "href": "https://en.wikipedia.org/wiki/Travel_and_Tourism_Competitiveness_Report",
    "linkText": "Travel and Tourism Competitiveness Report"
  },
  {
    "href": "https://en.wikipedia.org/wiki/Treaty",
    "linkText": "treaties"
  },
  {
    "href": "https://en.wikipedia.org/wiki/Treaty_of_Kiel",
    "linkText": "Treaty of Kiel"
  },
  {
    "href": "https://en.wikipedia.org/wiki/Treaty_of_Perth",
    "linkText": "Treaty of Perth"
  },
  {
    "href": "https://en.wikipedia.org/wiki/Tribal_chief",
    "linkText": "tribal chiefs"
  },
  {
    "href": "https://en.wikipedia.org/wiki/Troms",
    "linkText": "Troms"
  },
  {
    "href": "https://en.wikipedia.org/wiki/Troms%C3%B8",
    "linkText": "Tromsø"
  },
  {
    "href": "https://en.wikipedia.org/wiki/Trondheim",
    "linkText": "Trondheim"
  },
  {
    "href": "https://en.wikipedia.org/wiki/Trondheimsfjord",
    "linkText": "Trondheimsfjord"
  },
  {
    "href": "https://en.wikipedia.org/wiki/Trout",
    "linkText": "trout"
  },
  {
    "href": "https://en.wikipedia.org/wiki/Truls_M%C3%B8rk",
    "linkText": "Truls Mørk"
  },
  {
    "href": "https://en.wikipedia.org/wiki/Trygve_Haavelmo",
    "linkText": "Trygve Haavelmo"
  },
  {
    "href": "https://en.wikipedia.org/wiki/Tundra",
    "linkText": "tundra"
  },
  {
    "href": "https://en.wikipedia.org/wiki/Tundra_climate",
    "linkText": "tundra/alpine/polar climate"
  },
  {
    "href": "https://en.wikipedia.org/wiki/Turkish_people",
    "linkText": "Turkish"
  },
  {
    "href": "https://en.wikipedia.org/wiki/UEFA_European_Football_Championship",
    "linkText": "European Championship"
  },
  {
    "href": "https://en.wikipedia.org/wiki/UEFA_European_Women%27s_Championship",
    "linkText": "UEFA European Women's Championship"
  },
  {
    "href": "https://en.wikipedia.org/wiki/UEFA_Euro_2000",
    "linkText": "2000"
  },
  {
    "href": "https://en.wikipedia.org/wiki/UEFA_Women%27s_Euro_1993",
    "linkText": "1993"
  },
  {
    "href": "https://en.wikipedia.org/wiki/UNESCO",
    "linkText": "UNESCO"
  },
  {
    "href": "https://en.wikipedia.org/wiki/Unicameralism",
    "linkText": "unicameral"
  },
  {
    "href": "https://en.wikipedia.org/wiki/Union_between_Sweden_and_Norway",
    "linkText": "union with Sweden"
  },
  {
    "href": "https://en.wikipedia.org/wiki/Unitary_state",
    "linkText": "unitary state"
  },
  {
    "href": "https://en.wikipedia.org/wiki/United_Nations",
    "linkText": "United Nations"
  },
  {
    "href": "https://en.wikipedia.org/wiki/United_Nations_Development_Programme",
    "linkText": "UNDP"
  },
  {
    "href": "https://en.wikipedia.org/wiki/United_States-Norway_relations",
    "linkText": "United States"
  },
  {
    "href": "https://en.wikipedia.org/wiki/United_States_Constitution",
    "linkText": "American"
  },
  {
    "href": "https://en.wikipedia.org/wiki/United_States_Declaration_of_Independence",
    "linkText": "United States Declaration of Independence"
  },
  {
    "href": "https://en.wikipedia.org/wiki/Units_of_transportation_measurement",
    "linkText": "tonne-kilometres"
  },
  {
    "href": "https://en.wikipedia.org/wiki/Universal_health_care",
    "linkText": "universal health care"
  },
  {
    "href": "https://en.wikipedia.org/wiki/Universal_suffrage",
    "linkText": "universal suffrage"
  },
  {
    "href": "https://en.wikipedia.org/wiki/University_college",
    "linkText": "university colleges"
  },
  {
    "href": "https://en.wikipedia.org/wiki/University_of_Oslo",
    "linkText": "University of Oslo"
  },
  {
    "href": "https://en.wikipedia.org/wiki/Upper_Paleolithic",
    "linkText": "Upper Paleolithic"
  },
  {
    "href": "https://en.wikipedia.org/wiki/Uralic_languages",
    "linkText": "Uralic"
  },
  {
    "href": "https://en.wikipedia.org/wiki/Urnes_Stave_Church",
    "linkText": "Urnes Stave Church"
  },
  {
    "href": "https://en.wikipedia.org/wiki/Ut%C3%B8ya",
    "linkText": "Utøya"
  },
  {
    "href": "https://en.wikipedia.org/wiki/V%C3%A6r%C3%B8y",
    "linkText": "Værøy"
  },
  {
    "href": "https://en.wikipedia.org/wiki/Vaccination",
    "linkText": "Vaccination"
  },
  {
    "href": "https://en.wikipedia.org/wiki/Valdemar_IV_of_Denmark",
    "linkText": "Valdemar IV of Denmark"
  },
  {
    "href": "https://en.wikipedia.org/wiki/Vard%C3%B8",
    "linkText": "Vardø"
  },
  {
    "href": "https://en.wikipedia.org/wiki/Vascular_plant",
    "linkText": "vascular plants"
  },
  {
    "href": "https://en.wikipedia.org/wiki/Vemork",
    "linkText": "Vemork"
  },
  {
    "href": "https://en.wikipedia.org/wiki/Victual_Brothers",
    "linkText": "Victual Brothers"
  },
  {
    "href": "https://en.wikipedia.org/wiki/Vidkun_Quisling",
    "linkText": "Vidkun Quisling"
  },
  {
    "href": "https://en.wikipedia.org/wiki/Vigeland_Sculpture_Park",
    "linkText": "Vigeland Sculpture Park"
  },
  {
    "href": "https://en.wikipedia.org/wiki/Viking",
    "linkText": "Vikings"
  },
  {
    "href": "https://en.wikipedia.org/wiki/Viking_Age",
    "linkText": "Viking Age"
  },
  {
    "href": "https://en.wikipedia.org/wiki/Vilhelm_Aubert",
    "linkText": "Vilhelm Aubert"
  },
  {
    "href": "https://en.wikipedia.org/wiki/Vinland",
    "linkText": "Vinland"
  },
  {
    "href": "https://en.wikipedia.org/wiki/Voss",
    "linkText": "Voss"
  },
  {
    "href": "https://en.wikipedia.org/wiki/Waffen-SS",
    "linkText": "Waffen-SS"
  },
  {
    "href": "https://en.wikipedia.org/wiki/Walt_Disney_World_Resort",
    "linkText": "Walt Disney World Resort"
  },
  {
    "href": "https://en.wikipedia.org/wiki/War_in_Afghanistan_(2001%E2%80%93present)",
    "linkText": "Afghanistan"
  },
  {
    "href": "https://en.wikipedia.org/wiki/Waterford",
    "linkText": "Waterford"
  },
  {
    "href": "https://en.wikipedia.org/wiki/Weichselian_glaciation",
    "linkText": "Weichselian glaciation"
  },
  {
    "href": "https://en.wikipedia.org/wiki/Welfare_state",
    "linkText": "welfare state"
  },
  {
    "href": "https://en.wikipedia.org/wiki/Western_Norway",
    "linkText": "Western"
  },
  {
    "href": "https://en.wikipedia.org/wiki/Western_Roman_Empire",
    "linkText": "Western Roman Empire"
  },
  {
    "href": "https://en.wikipedia.org/wiki/Whaling_in_Norway",
    "linkText": "Norway's whaling"
  },
  {
    "href": "https://en.wikipedia.org/wiki/Wibutee",
    "linkText": "Wibutee"
  },
  {
    "href": "https://en.wikipedia.org/wiki/Winter_Olympic_Games",
    "linkText": "Winter Olympic Games"
  },
  {
    "href": "https://en.wikipedia.org/wiki/Women%27s_suffrage",
    "linkText": "women's suffrage"
  },
  {
    "href": "https://en.wikipedia.org/wiki/Workers%27_Youth_League_(Norway)",
    "linkText": "youth movement"
  },
  {
    "href": "https://en.wikipedia.org/wiki/World_Bank",
    "linkText": "World Bank"
  },
  {
    "href": "https://en.wikipedia.org/wiki/World_Economic_Forum",
    "linkText": "World Economic Forum"
  },
  {
    "href": "https://en.wikipedia.org/wiki/World_Happiness_Report",
    "linkText": "World Happiness Report"
  },
  {
    "href": "https://en.wikipedia.org/wiki/World_Heritage_List",
    "linkText": "World Heritage List"
  },
  {
    "href": "https://en.wikipedia.org/wiki/World_Trade_Organization",
    "linkText": "WTO"
  },
  {
    "href": "https://en.wikipedia.org/wiki/World_War_I",
    "linkText": "First World War"
  },
  {
    "href": "https://en.wikipedia.org/wiki/World_War_II",
    "linkText": "Second World War"
  },
  {
    "href": "https://en.wikipedia.org/wiki/World_Women%27s_Handball_Championship",
    "linkText": "World Championships"
  },
  {
    "href": "https://en.wikipedia.org/wiki/Yale_University",
    "linkText": "Yale University"
  },
  {
    "href": "https://en.wikipedia.org/wiki/Ylvis",
    "linkText": "Ylvis"
  }
]